{
  "classifierPath" : "meta::pure::metamodel::text::Text",
  "content" : {
    "_type" : "text",
    "content" : "OptionStrike - the definition of Price property is credit specific. ISDA to investigate.\r\nPlaceholder - function to evaluate weights for parametric dates required in ObservationDates class. ISDA to review CDM feasibility for such functions.\r\nPlaceholder - for refactoring FxRateObservable in future. Provisions within FxDisruption FpML class (within FxSingleLeg) to be reviewed so to design a harmonized FxRateObservable that can be re-used.\r\nPlaceholder - for qualification function constraint which would determine when fxRateObservable is applicable",
    "name" : "AveragingModelNotes",
    "package" : "cdm::AveragingModel",
    "type" : "plainText"
  }
}