{
  "classifierPath" : "meta::pure::metamodel::type::Class",
  "content" : {
    "_type" : "class",
    "constraints" : [ {
      "functionDefinition" : {
        "_type" : "lambda",
        "body" : [ {
          "_type" : "func",
          "function" : "or",
          "parameters" : [ {
            "_type" : "func",
            "function" : "and",
            "parameters" : [ {
              "_type" : "func",
              "function" : "isNotEmpty",
              "parameters" : [ {
                "_type" : "property",
                "parameters" : [ {
                  "_type" : "var",
                  "name" : "this",
                  "sourceInformation" : {
                    "endColumn" : 19,
                    "endLine" : 6068,
                    "sourceId" : "",
                    "startColumn" : 15,
                    "startLine" : 6068
                  }
                } ],
                "property" : "routingIds",
                "sourceInformation" : {
                  "endColumn" : 30,
                  "endLine" : 6068,
                  "sourceId" : "",
                  "startColumn" : 21,
                  "startLine" : 6068
                }
              } ],
              "sourceInformation" : {
                "endColumn" : 42,
                "endLine" : 6068,
                "sourceId" : "",
                "startColumn" : 33,
                "startLine" : 6068
              }
            }, {
              "_type" : "func",
              "function" : "and",
              "parameters" : [ {
                "_type" : "func",
                "function" : "isEmpty",
                "parameters" : [ {
                  "_type" : "property",
                  "parameters" : [ {
                    "_type" : "var",
                    "name" : "this",
                    "sourceInformation" : {
                      "endColumn" : 54,
                      "endLine" : 6068,
                      "sourceId" : "",
                      "startColumn" : 50,
                      "startLine" : 6068
                    }
                  } ],
                  "property" : "routingExplicitDetails",
                  "sourceInformation" : {
                    "endColumn" : 77,
                    "endLine" : 6068,
                    "sourceId" : "",
                    "startColumn" : 56,
                    "startLine" : 6068
                  }
                } ],
                "sourceInformation" : {
                  "endColumn" : 86,
                  "endLine" : 6068,
                  "sourceId" : "",
                  "startColumn" : 80,
                  "startLine" : 6068
                }
              }, {
                "_type" : "func",
                "function" : "isEmpty",
                "parameters" : [ {
                  "_type" : "property",
                  "parameters" : [ {
                    "_type" : "var",
                    "name" : "this",
                    "sourceInformation" : {
                      "endColumn" : 97,
                      "endLine" : 6068,
                      "sourceId" : "",
                      "startColumn" : 93,
                      "startLine" : 6068
                    }
                  } ],
                  "property" : "routingIdsAndExplicitDetails",
                  "sourceInformation" : {
                    "endColumn" : 126,
                    "endLine" : 6068,
                    "sourceId" : "",
                    "startColumn" : 99,
                    "startLine" : 6068
                  }
                } ],
                "sourceInformation" : {
                  "endColumn" : 135,
                  "endLine" : 6068,
                  "sourceId" : "",
                  "startColumn" : 129,
                  "startLine" : 6068
                }
              } ],
              "sourceInformation" : {
                "endColumn" : 91,
                "endLine" : 6068,
                "sourceId" : "",
                "startColumn" : 90,
                "startLine" : 6068
              }
            } ],
            "sourceInformation" : {
              "endColumn" : 47,
              "endLine" : 6068,
              "sourceId" : "",
              "startColumn" : 46,
              "startLine" : 6068
            }
          }, {
            "_type" : "func",
            "function" : "or",
            "parameters" : [ {
              "_type" : "func",
              "function" : "and",
              "parameters" : [ {
                "_type" : "func",
                "function" : "isEmpty",
                "parameters" : [ {
                  "_type" : "property",
                  "parameters" : [ {
                    "_type" : "var",
                    "name" : "this",
                    "sourceInformation" : {
                      "endColumn" : 150,
                      "endLine" : 6068,
                      "sourceId" : "",
                      "startColumn" : 146,
                      "startLine" : 6068
                    }
                  } ],
                  "property" : "routingIds",
                  "sourceInformation" : {
                    "endColumn" : 161,
                    "endLine" : 6068,
                    "sourceId" : "",
                    "startColumn" : 152,
                    "startLine" : 6068
                  }
                } ],
                "sourceInformation" : {
                  "endColumn" : 170,
                  "endLine" : 6068,
                  "sourceId" : "",
                  "startColumn" : 164,
                  "startLine" : 6068
                }
              }, {
                "_type" : "func",
                "function" : "and",
                "parameters" : [ {
                  "_type" : "func",
                  "function" : "isNotEmpty",
                  "parameters" : [ {
                    "_type" : "property",
                    "parameters" : [ {
                      "_type" : "var",
                      "name" : "this",
                      "sourceInformation" : {
                        "endColumn" : 182,
                        "endLine" : 6068,
                        "sourceId" : "",
                        "startColumn" : 178,
                        "startLine" : 6068
                      }
                    } ],
                    "property" : "routingExplicitDetails",
                    "sourceInformation" : {
                      "endColumn" : 205,
                      "endLine" : 6068,
                      "sourceId" : "",
                      "startColumn" : 184,
                      "startLine" : 6068
                    }
                  } ],
                  "sourceInformation" : {
                    "endColumn" : 217,
                    "endLine" : 6068,
                    "sourceId" : "",
                    "startColumn" : 208,
                    "startLine" : 6068
                  }
                }, {
                  "_type" : "func",
                  "function" : "isEmpty",
                  "parameters" : [ {
                    "_type" : "property",
                    "parameters" : [ {
                      "_type" : "var",
                      "name" : "this",
                      "sourceInformation" : {
                        "endColumn" : 228,
                        "endLine" : 6068,
                        "sourceId" : "",
                        "startColumn" : 224,
                        "startLine" : 6068
                      }
                    } ],
                    "property" : "routingIdsAndExplicitDetails",
                    "sourceInformation" : {
                      "endColumn" : 257,
                      "endLine" : 6068,
                      "sourceId" : "",
                      "startColumn" : 230,
                      "startLine" : 6068
                    }
                  } ],
                  "sourceInformation" : {
                    "endColumn" : 266,
                    "endLine" : 6068,
                    "sourceId" : "",
                    "startColumn" : 260,
                    "startLine" : 6068
                  }
                } ],
                "sourceInformation" : {
                  "endColumn" : 222,
                  "endLine" : 6068,
                  "sourceId" : "",
                  "startColumn" : 221,
                  "startLine" : 6068
                }
              } ],
              "sourceInformation" : {
                "endColumn" : 175,
                "endLine" : 6068,
                "sourceId" : "",
                "startColumn" : 174,
                "startLine" : 6068
              }
            }, {
              "_type" : "func",
              "function" : "and",
              "parameters" : [ {
                "_type" : "func",
                "function" : "isEmpty",
                "parameters" : [ {
                  "_type" : "property",
                  "parameters" : [ {
                    "_type" : "var",
                    "name" : "this",
                    "sourceInformation" : {
                      "endColumn" : 280,
                      "endLine" : 6068,
                      "sourceId" : "",
                      "startColumn" : 276,
                      "startLine" : 6068
                    }
                  } ],
                  "property" : "routingIds",
                  "sourceInformation" : {
                    "endColumn" : 291,
                    "endLine" : 6068,
                    "sourceId" : "",
                    "startColumn" : 282,
                    "startLine" : 6068
                  }
                } ],
                "sourceInformation" : {
                  "endColumn" : 300,
                  "endLine" : 6068,
                  "sourceId" : "",
                  "startColumn" : 294,
                  "startLine" : 6068
                }
              }, {
                "_type" : "func",
                "function" : "and",
                "parameters" : [ {
                  "_type" : "func",
                  "function" : "isEmpty",
                  "parameters" : [ {
                    "_type" : "property",
                    "parameters" : [ {
                      "_type" : "var",
                      "name" : "this",
                      "sourceInformation" : {
                        "endColumn" : 312,
                        "endLine" : 6068,
                        "sourceId" : "",
                        "startColumn" : 308,
                        "startLine" : 6068
                      }
                    } ],
                    "property" : "routingExplicitDetails",
                    "sourceInformation" : {
                      "endColumn" : 335,
                      "endLine" : 6068,
                      "sourceId" : "",
                      "startColumn" : 314,
                      "startLine" : 6068
                    }
                  } ],
                  "sourceInformation" : {
                    "endColumn" : 344,
                    "endLine" : 6068,
                    "sourceId" : "",
                    "startColumn" : 338,
                    "startLine" : 6068
                  }
                }, {
                  "_type" : "func",
                  "function" : "isNotEmpty",
                  "parameters" : [ {
                    "_type" : "property",
                    "parameters" : [ {
                      "_type" : "var",
                      "name" : "this",
                      "sourceInformation" : {
                        "endColumn" : 355,
                        "endLine" : 6068,
                        "sourceId" : "",
                        "startColumn" : 351,
                        "startLine" : 6068
                      }
                    } ],
                    "property" : "routingIdsAndExplicitDetails",
                    "sourceInformation" : {
                      "endColumn" : 384,
                      "endLine" : 6068,
                      "sourceId" : "",
                      "startColumn" : 357,
                      "startLine" : 6068
                    }
                  } ],
                  "sourceInformation" : {
                    "endColumn" : 396,
                    "endLine" : 6068,
                    "sourceId" : "",
                    "startColumn" : 387,
                    "startLine" : 6068
                  }
                } ],
                "sourceInformation" : {
                  "endColumn" : 349,
                  "endLine" : 6068,
                  "sourceId" : "",
                  "startColumn" : 348,
                  "startLine" : 6068
                }
              } ],
              "sourceInformation" : {
                "endColumn" : 305,
                "endLine" : 6068,
                "sourceId" : "",
                "startColumn" : 304,
                "startLine" : 6068
              }
            } ],
            "sourceInformation" : {
              "endColumn" : 273,
              "endLine" : 6068,
              "sourceId" : "",
              "startColumn" : 272,
              "startLine" : 6068
            }
          } ],
          "sourceInformation" : {
            "endColumn" : 142,
            "endLine" : 6068,
            "sourceId" : "",
            "startColumn" : 141,
            "startLine" : 6068
          }
        } ],
        "parameters" : [ ]
      },
      "name" : "c1_choice"
    } ],
    "name" : "Beneficiary",
    "package" : "FpML::model",
    "properties" : [ {
      "multiplicity" : {
        "lowerBound" : 0,
        "upperBound" : 1
      },
      "name" : "routingIds",
      "taggedValues" : [ {
        "tag" : {
          "profile" : "meta::pure::profiles::doc",
          "value" : "doc"
        },
        "value" : "A set of unique identifiers for a party, eachone identifying the party within a payment system. The assumption is that each party will not have more than one identifier within the same payment system."
      } ],
      "type" : "FpML::model::RoutingIds"
    }, {
      "multiplicity" : {
        "lowerBound" : 0,
        "upperBound" : 1
      },
      "name" : "routingExplicitDetails",
      "taggedValues" : [ {
        "tag" : {
          "profile" : "meta::pure::profiles::doc",
          "value" : "doc"
        },
        "value" : "A set of details that is used to identify a party involved in the routing of a payment when the party does not have a code that identifies it within one of the recognized payment systems."
      } ],
      "type" : "FpML::model::RoutingExplicitDetails"
    }, {
      "multiplicity" : {
        "lowerBound" : 0,
        "upperBound" : 1
      },
      "name" : "routingIdsAndExplicitDetails",
      "taggedValues" : [ {
        "tag" : {
          "profile" : "meta::pure::profiles::doc",
          "value" : "doc"
        },
        "value" : "A combination of coded payment system identifiers and details for physical addressing for a party involved in the routing of a payment."
      } ],
      "type" : "FpML::model::RoutingIdsAndExplicitDetails"
    }, {
      "multiplicity" : {
        "lowerBound" : 0,
        "upperBound" : 1
      },
      "name" : "beneficiaryPartyReference",
      "taggedValues" : [ {
        "tag" : {
          "profile" : "meta::pure::profiles::doc",
          "value" : "doc"
        },
        "value" : "Link to the party acting as beneficiary. This element can only appear within the beneficiary container element."
      } ],
      "type" : "FpML::model::PartyReference"
    } ],
    "taggedValues" : [ {
      "tag" : {
        "profile" : "meta::pure::profiles::doc",
        "value" : "doc"
      },
      "value" : "A type defining the beneficiary of the funds."
    } ]
  }
}