{
  "classifierPath" : "meta::pure::metamodel::type::Class",
  "content" : {
    "_type" : "class",
    "name" : "BermudaExercise",
    "package" : "FpML::model",
    "properties" : [ {
      "multiplicity" : {
        "lowerBound" : 0,
        "upperBound" : 1
      },
      "name" : "bermudaExerciseDates",
      "taggedValues" : [ {
        "tag" : {
          "profile" : "meta::pure::profiles::doc",
          "value" : "doc"
        },
        "value" : "The dates the define the Bermuda option exercise dates and the expiration date. The last specified date is assumed to be the expiration date. The dates can either be specified as a series of explicit dates and associated adjustments or as a series of dates defined relative to another schedule of dates, for example, the calculation period start dates. Where a relative series of dates are defined the first and last possible exercise dates can be separately specified."
      } ],
      "type" : "FpML::model::AdjustableOrRelativeDates"
    }, {
      "multiplicity" : {
        "lowerBound" : 0,
        "upperBound" : 1
      },
      "name" : "relevantUnderlyingDate",
      "taggedValues" : [ {
        "tag" : {
          "profile" : "meta::pure::profiles::doc",
          "value" : "doc"
        },
        "value" : "The date on the underlying set by the exercise of an option. What this date is depends on the option (e.g. in a swaption it is the swap effective date, in an extendible/cancelable provision it is the swap termination date)."
      } ],
      "type" : "FpML::model::AdjustableOrRelativeDates"
    }, {
      "multiplicity" : {
        "lowerBound" : 0,
        "upperBound" : 1
      },
      "name" : "earliestExerciseTime",
      "taggedValues" : [ {
        "tag" : {
          "profile" : "meta::pure::profiles::doc",
          "value" : "doc"
        },
        "value" : "The earliest time at which notice of exercise can be given by the buyer to the seller (or seller's agent) i) on the expriation date, in the case of a European style option, (ii) on each bermuda option exercise date and the expiration date, in the case of a Bermuda style option the commencement date to, and including, the expiration date , in the case of an American option."
      } ],
      "type" : "FpML::model::BusinessCenterTime"
    }, {
      "multiplicity" : {
        "lowerBound" : 0,
        "upperBound" : 1
      },
      "name" : "latestExerciseTime",
      "taggedValues" : [ {
        "tag" : {
          "profile" : "meta::pure::profiles::doc",
          "value" : "doc"
        },
        "value" : "For a Bermuda or American style option, the latest time on an exercise business day (excluding the expiration date) within the exercise period that notice can be given by the buyer to the seller or seller's agent. Notice of exercise given after this time will be deemed to have been given on the next exercise business day."
      } ],
      "type" : "FpML::model::BusinessCenterTime"
    }, {
      "multiplicity" : {
        "lowerBound" : 0,
        "upperBound" : 1
      },
      "name" : "expirationTime",
      "taggedValues" : [ {
        "tag" : {
          "profile" : "meta::pure::profiles::doc",
          "value" : "doc"
        },
        "value" : "The latest time for exercise on expirationDate."
      } ],
      "type" : "FpML::model::BusinessCenterTime"
    }, {
      "multiplicity" : {
        "lowerBound" : 0,
        "upperBound" : 1
      },
      "name" : "multipleExercise",
      "taggedValues" : [ {
        "tag" : {
          "profile" : "meta::pure::profiles::doc",
          "value" : "doc"
        },
        "value" : "As defined in the 2000 ISDA Definitions, Section 12.4. Multiple Exercise, the buyer of the option has the right to exercise all or less than all the unexercised notional amount of the underlying swap on one or more days in the exercise period, but on any such day may not exercise less than the minimum notional amount or more that the maximum notional amount, and if an integral multiple amount is specified, the notional amount exercised must be equal to, or be an intergral multiple of, the integral multiple amount."
      } ],
      "type" : "FpML::model::MultipleExercise"
    }, {
      "multiplicity" : {
        "lowerBound" : 0,
        "upperBound" : 1
      },
      "name" : "exerciseFeeSchedule",
      "taggedValues" : [ {
        "tag" : {
          "profile" : "meta::pure::profiles::doc",
          "value" : "doc"
        },
        "value" : "The fees associated with an exercise date. The fees are conditional on the exercise occuring. The fees can be specified as actual currency amounts or as percentages of the notional amount being exercised."
      } ],
      "type" : "FpML::model::ExerciseFeeSchedule"
    } ],
    "superTypes" : [ "FpML::model::Exercise" ],
    "taggedValues" : [ {
      "tag" : {
        "profile" : "meta::pure::profiles::doc",
        "value" : "doc"
      },
      "value" : "A type defining the Bermuda option exercise dates and the expiration date together with any rules govenerning the notional amount of the underlying which can be exercised on any given exercise date and any associated exercise fee."
    } ]
  }
}