{
  "classifierPath" : "meta::pure::metamodel::type::Class",
  "content" : {
    "_type" : "class",
    "constraints" : [ {
      "functionDefinition" : {
        "_type" : "lambda",
        "body" : [ {
          "_type" : "func",
          "function" : "forAll",
          "parameters" : [ {
            "_type" : "property",
            "parameters" : [ {
              "_type" : "var",
              "name" : "this",
              "sourceInformation" : {
                "endColumn" : 18,
                "endLine" : 6295,
                "sourceId" : "",
                "startColumn" : 14,
                "startLine" : 6295
              }
            } ],
            "property" : "units",
            "sourceInformation" : {
              "endColumn" : 24,
              "endLine" : 6295,
              "sourceId" : "",
              "startColumn" : 20,
              "startLine" : 6295
            }
          }, {
            "_type" : "lambda",
            "body" : [ {
              "_type" : "func",
              "function" : "greaterThanEqual",
              "parameters" : [ {
                "_type" : "func",
                "function" : "length",
                "parameters" : [ {
                  "_type" : "var",
                  "name" : "x",
                  "sourceInformation" : {
                    "endColumn" : 48,
                    "endLine" : 6295,
                    "sourceId" : "",
                    "startColumn" : 47,
                    "startLine" : 6295
                  }
                } ],
                "sourceInformation" : {
                  "endColumn" : 56,
                  "endLine" : 6295,
                  "sourceId" : "",
                  "startColumn" : 51,
                  "startLine" : 6295
                }
              }, {
                "_type" : "integer",
                "multiplicity" : {
                  "lowerBound" : 1,
                  "upperBound" : 1
                },
                "sourceInformation" : {
                  "endColumn" : 63,
                  "endLine" : 6295,
                  "sourceId" : "",
                  "startColumn" : 63,
                  "startLine" : 6295
                },
                "values" : [ 0 ]
              } ],
              "sourceInformation" : {
                "endColumn" : 63,
                "endLine" : 6295,
                "sourceId" : "",
                "startColumn" : 60,
                "startLine" : 6295
              }
            } ],
            "parameters" : [ {
              "_type" : "var",
              "class" : "String",
              "multiplicity" : {
                "lowerBound" : 1,
                "upperBound" : 1
              },
              "name" : "x",
              "sourceInformation" : {
                "endColumn" : 42,
                "endLine" : 6295,
                "sourceId" : "",
                "startColumn" : 37,
                "startLine" : 6295
              }
            } ],
            "sourceInformation" : {
              "endColumn" : 63,
              "endLine" : 6295,
              "sourceId" : "",
              "startColumn" : 46,
              "startLine" : 6295
            }
          } ],
          "sourceInformation" : {
            "endColumn" : 32,
            "endLine" : 6295,
            "sourceId" : "",
            "startColumn" : 27,
            "startLine" : 6295
          }
        } ],
        "parameters" : [ ]
      },
      "name" : "c1_length"
    }, {
      "functionDefinition" : {
        "_type" : "lambda",
        "body" : [ {
          "_type" : "func",
          "function" : "or",
          "parameters" : [ {
            "_type" : "func",
            "function" : "and",
            "parameters" : [ {
              "_type" : "func",
              "function" : "isNotEmpty",
              "parameters" : [ {
                "_type" : "property",
                "parameters" : [ {
                  "_type" : "var",
                  "name" : "this",
                  "sourceInformation" : {
                    "endColumn" : 19,
                    "endLine" : 6296,
                    "sourceId" : "",
                    "startColumn" : 15,
                    "startLine" : 6296
                  }
                } ],
                "property" : "currency",
                "sourceInformation" : {
                  "endColumn" : 28,
                  "endLine" : 6296,
                  "sourceId" : "",
                  "startColumn" : 21,
                  "startLine" : 6296
                }
              } ],
              "sourceInformation" : {
                "endColumn" : 40,
                "endLine" : 6296,
                "sourceId" : "",
                "startColumn" : 31,
                "startLine" : 6296
              }
            }, {
              "_type" : "func",
              "function" : "isEmpty",
              "parameters" : [ {
                "_type" : "property",
                "parameters" : [ {
                  "_type" : "var",
                  "name" : "this",
                  "sourceInformation" : {
                    "endColumn" : 51,
                    "endLine" : 6296,
                    "sourceId" : "",
                    "startColumn" : 47,
                    "startLine" : 6296
                  }
                } ],
                "property" : "units",
                "sourceInformation" : {
                  "endColumn" : 57,
                  "endLine" : 6296,
                  "sourceId" : "",
                  "startColumn" : 53,
                  "startLine" : 6296
                }
              } ],
              "sourceInformation" : {
                "endColumn" : 66,
                "endLine" : 6296,
                "sourceId" : "",
                "startColumn" : 60,
                "startLine" : 6296
              }
            } ],
            "sourceInformation" : {
              "endColumn" : 45,
              "endLine" : 6296,
              "sourceId" : "",
              "startColumn" : 44,
              "startLine" : 6296
            }
          }, {
            "_type" : "func",
            "function" : "and",
            "parameters" : [ {
              "_type" : "func",
              "function" : "isEmpty",
              "parameters" : [ {
                "_type" : "property",
                "parameters" : [ {
                  "_type" : "var",
                  "name" : "this",
                  "sourceInformation" : {
                    "endColumn" : 79,
                    "endLine" : 6296,
                    "sourceId" : "",
                    "startColumn" : 75,
                    "startLine" : 6296
                  }
                } ],
                "property" : "currency",
                "sourceInformation" : {
                  "endColumn" : 88,
                  "endLine" : 6296,
                  "sourceId" : "",
                  "startColumn" : 81,
                  "startLine" : 6296
                }
              } ],
              "sourceInformation" : {
                "endColumn" : 97,
                "endLine" : 6296,
                "sourceId" : "",
                "startColumn" : 91,
                "startLine" : 6296
              }
            }, {
              "_type" : "func",
              "function" : "isNotEmpty",
              "parameters" : [ {
                "_type" : "property",
                "parameters" : [ {
                  "_type" : "var",
                  "name" : "this",
                  "sourceInformation" : {
                    "endColumn" : 108,
                    "endLine" : 6296,
                    "sourceId" : "",
                    "startColumn" : 104,
                    "startLine" : 6296
                  }
                } ],
                "property" : "units",
                "sourceInformation" : {
                  "endColumn" : 114,
                  "endLine" : 6296,
                  "sourceId" : "",
                  "startColumn" : 110,
                  "startLine" : 6296
                }
              } ],
              "sourceInformation" : {
                "endColumn" : 126,
                "endLine" : 6296,
                "sourceId" : "",
                "startColumn" : 117,
                "startLine" : 6296
              }
            } ],
            "sourceInformation" : {
              "endColumn" : 102,
              "endLine" : 6296,
              "sourceId" : "",
              "startColumn" : 101,
              "startLine" : 6296
            }
          } ],
          "sourceInformation" : {
            "endColumn" : 72,
            "endLine" : 6296,
            "sourceId" : "",
            "startColumn" : 71,
            "startLine" : 6296
          }
        } ],
        "parameters" : [ ]
      },
      "name" : "c2_choice"
    } ],
    "name" : "CashflowNotional",
    "package" : "FpML::model",
    "properties" : [ {
      "multiplicity" : {
        "lowerBound" : 0,
        "upperBound" : 1
      },
      "name" : "currency",
      "taggedValues" : [ {
        "tag" : {
          "profile" : "meta::pure::profiles::doc",
          "value" : "doc"
        },
        "value" : "The currency in which an amount is denominated."
      } ],
      "type" : "FpML::model::Currency"
    }, {
      "multiplicity" : {
        "lowerBound" : 0,
        "upperBound" : 1
      },
      "name" : "units",
      "taggedValues" : [ {
        "tag" : {
          "profile" : "meta::pure::profiles::doc",
          "value" : "doc"
        },
        "value" : "The units in which an amount (not monetary) is denominated."
      } ],
      "type" : "String"
    }, {
      "multiplicity" : {
        "lowerBound" : 0,
        "upperBound" : 1
      },
      "name" : "amount",
      "taggedValues" : [ {
        "tag" : {
          "profile" : "meta::pure::profiles::doc",
          "value" : "doc"
        },
        "value" : "The quantity of notional (in currency or other units)."
      } ],
      "type" : "Decimal"
    }, {
      "multiplicity" : {
        "lowerBound" : 0,
        "upperBound" : 1
      },
      "name" : "id",
      "type" : "String"
    } ],
    "taggedValues" : [ {
      "tag" : {
        "profile" : "meta::pure::profiles::doc",
        "value" : "doc"
      },
      "value" : "The notional/principal value/quantity/volume used to compute the cashflow."
    } ]
  }
}