{
  "classifierPath" : "meta::pure::metamodel::type::Enumeration",
  "content" : {
    "_type" : "Enumeration",
    "name" : "CommissionDenominationEnum",
    "package" : "FpML::model",
    "taggedValues" : [ {
      "tag" : {
        "profile" : "meta::pure::profiles::doc",
        "value" : "doc"
      },
      "value" : "The unit in which a commission is denominated."
    } ],
    "values" : [ {
      "value" : "BPS"
    }, {
      "value" : "Percentage"
    }, {
      "value" : "CentsPerShare"
    }, {
      "value" : "FixedAmount"
    } ]
  }
}