{
  "classifierPath" : "meta::pure::metamodel::type::Enumeration",
  "content" : {
    "_type" : "Enumeration",
    "name" : "CommodityReturnCalculationFormulaEnum",
    "package" : "FpML::model",
    "taggedValues" : [ {
      "tag" : {
        "profile" : "meta::pure::profiles::doc",
        "value" : "doc"
      },
      "value" : "Defines the value of the commodity return calculation formula as simple or compound. The simple return formula is: [ [P sub t - P sub (t-1)] / [P sub (t-1)] ] - 1 where: P sub t is the price or index level at time period t and P sub t-1 is the price or index level in time period t-1. The compound return formula is the geometric average return for the period: PI from d=1 to d=n [ [ [ [P sub t - P sub (t-1)] / [P sub (t-1)] ] + 1] sup (1 / n) ] - 1 where: PI is the product operator, p sub t is the price or index level at time period t, p sub t -1 is the price or index level at time period t-1"
    } ],
    "values" : [ {
      "value" : "SimpleFormula"
    }, {
      "value" : "CompoundFormula"
    } ]
  }
}