{
  "classifierPath" : "meta::pure::metamodel::type::Enumeration",
  "content" : {
    "_type" : "Enumeration",
    "name" : "DifferenceSeverityEnum",
    "package" : "FpML::model",
    "taggedValues" : [ {
      "tag" : {
        "profile" : "meta::pure::profiles::doc",
        "value" : "doc"
      },
      "value" : "The ISDA defined value indicating the severity of a difference."
    } ],
    "values" : [ {
      "value" : "Warning"
    }, {
      "value" : "Error"
    } ]
  }
}