{
  "classifierPath" : "meta::pure::metamodel::type::Enumeration",
  "content" : {
    "_type" : "Enumeration",
    "name" : "DividendPeriodEnum",
    "package" : "FpML::model",
    "taggedValues" : [ {
      "tag" : {
        "profile" : "meta::pure::profiles::doc",
        "value" : "doc"
      },
      "value" : "Defines the First Period or the Second Period, as specified in the 2002 ISDA Equity Derivatives Definitions."
    } ],
    "values" : [ {
      "value" : "FirstPeriod"
    }, {
      "value" : "SecondPeriod"
    } ]
  }
}