{
  "classifierPath" : "meta::pure::metamodel::type::Class",
  "content" : {
    "_type" : "class",
    "name" : "EquityAsset",
    "package" : "FpML::model",
    "superTypes" : [ "FpML::model::ExchangeTraded" ],
    "taggedValues" : [ {
      "tag" : {
        "profile" : "meta::pure::profiles::doc",
        "value" : "doc"
      },
      "value" : "An exchange traded equity asset."
    } ]
  }
}