{
  "classifierPath" : "meta::pure::metamodel::type::Class",
  "content" : {
    "_type" : "class",
    "name" : "ExchangeTraded",
    "package" : "FpML::model",
    "properties" : [ {
      "multiplicity" : {
        "lowerBound" : 0
      },
      "name" : "relatedExchangeId",
      "taggedValues" : [ {
        "tag" : {
          "profile" : "meta::pure::profiles::doc",
          "value" : "doc"
        },
        "value" : "A short form unique identifier for a related exchange. If the element is not present then the exchange shall be the primary exchange on which listed futures and options on the underlying are listed. The term 'Exchange' is assumed to have the meaning as defined in the ISDA 2002 Equity Derivatives Definitions."
      } ],
      "type" : "FpML::model::ExchangeId"
    }, {
      "multiplicity" : {
        "lowerBound" : 0
      },
      "name" : "optionsExchangeId",
      "taggedValues" : [ {
        "tag" : {
          "profile" : "meta::pure::profiles::doc",
          "value" : "doc"
        },
        "value" : "A short form unique identifier for an exchange on which the reference option contract is listed. This is to address the case where the reference exchange for the future is different than the one for the option. The options Exchange is referenced on share options when Merger Elections are selected as Options Exchange Adjustment."
      } ],
      "type" : "FpML::model::ExchangeId"
    }, {
      "multiplicity" : {
        "lowerBound" : 0
      },
      "name" : "specifiedExchangeId",
      "taggedValues" : [ {
        "tag" : {
          "profile" : "meta::pure::profiles::doc",
          "value" : "doc"
        },
        "value" : "A short form unique identifier for a specified exchange. If the element is not present then the exchange shall be default terms as defined in the MCA; unless otherwise specified in the Transaction Supplement."
      } ],
      "type" : "FpML::model::ExchangeId"
    } ],
    "stereotypes" : [ {
      "profile" : "meta::pure::profiles::typemodifiers",
      "value" : "abstract"
    } ],
    "superTypes" : [ "FpML::model::UnderlyingAsset" ],
    "taggedValues" : [ {
      "tag" : {
        "profile" : "meta::pure::profiles::doc",
        "value" : "doc"
      },
      "value" : "An abstract base class for all exchange traded financial products."
    } ]
  }
}