{
  "classifierPath" : "meta::pure::metamodel::type::Enumeration",
  "content" : {
    "_type" : "Enumeration",
    "name" : "ExerciseTimingEnum",
    "package" : "FpML::model",
    "taggedValues" : [ {
      "tag" : {
        "profile" : "meta::pure::profiles::doc",
        "value" : "doc"
      },
      "value" : "When a requested option exercise event is desired to be performed."
    } ],
    "values" : [ {
      "value" : "Immediate"
    }, {
      "value" : "OnExpiration"
    } ]
  }
}