{
  "classifierPath" : "meta::pure::metamodel::type::Class",
  "content" : {
    "_type" : "class",
    "constraints" : [ {
      "functionDefinition" : {
        "_type" : "lambda",
        "body" : [ {
          "_type" : "func",
          "function" : "or",
          "parameters" : [ {
            "_type" : "func",
            "function" : "and",
            "parameters" : [ {
              "_type" : "func",
              "function" : "isNotEmpty",
              "parameters" : [ {
                "_type" : "property",
                "parameters" : [ {
                  "_type" : "var",
                  "name" : "this",
                  "sourceInformation" : {
                    "endColumn" : 19,
                    "endLine" : 6979,
                    "sourceId" : "",
                    "startColumn" : 15,
                    "startLine" : 6979
                  }
                } ],
                "property" : "manualExercise",
                "sourceInformation" : {
                  "endColumn" : 34,
                  "endLine" : 6979,
                  "sourceId" : "",
                  "startColumn" : 21,
                  "startLine" : 6979
                }
              } ],
              "sourceInformation" : {
                "endColumn" : 46,
                "endLine" : 6979,
                "sourceId" : "",
                "startColumn" : 37,
                "startLine" : 6979
              }
            }, {
              "_type" : "func",
              "function" : "isEmpty",
              "parameters" : [ {
                "_type" : "property",
                "parameters" : [ {
                  "_type" : "var",
                  "name" : "this",
                  "sourceInformation" : {
                    "endColumn" : 57,
                    "endLine" : 6979,
                    "sourceId" : "",
                    "startColumn" : 53,
                    "startLine" : 6979
                  }
                } ],
                "property" : "automaticExercise",
                "sourceInformation" : {
                  "endColumn" : 75,
                  "endLine" : 6979,
                  "sourceId" : "",
                  "startColumn" : 59,
                  "startLine" : 6979
                }
              } ],
              "sourceInformation" : {
                "endColumn" : 84,
                "endLine" : 6979,
                "sourceId" : "",
                "startColumn" : 78,
                "startLine" : 6979
              }
            } ],
            "sourceInformation" : {
              "endColumn" : 51,
              "endLine" : 6979,
              "sourceId" : "",
              "startColumn" : 50,
              "startLine" : 6979
            }
          }, {
            "_type" : "func",
            "function" : "and",
            "parameters" : [ {
              "_type" : "func",
              "function" : "isEmpty",
              "parameters" : [ {
                "_type" : "property",
                "parameters" : [ {
                  "_type" : "var",
                  "name" : "this",
                  "sourceInformation" : {
                    "endColumn" : 97,
                    "endLine" : 6979,
                    "sourceId" : "",
                    "startColumn" : 93,
                    "startLine" : 6979
                  }
                } ],
                "property" : "manualExercise",
                "sourceInformation" : {
                  "endColumn" : 112,
                  "endLine" : 6979,
                  "sourceId" : "",
                  "startColumn" : 99,
                  "startLine" : 6979
                }
              } ],
              "sourceInformation" : {
                "endColumn" : 121,
                "endLine" : 6979,
                "sourceId" : "",
                "startColumn" : 115,
                "startLine" : 6979
              }
            }, {
              "_type" : "func",
              "function" : "isNotEmpty",
              "parameters" : [ {
                "_type" : "property",
                "parameters" : [ {
                  "_type" : "var",
                  "name" : "this",
                  "sourceInformation" : {
                    "endColumn" : 132,
                    "endLine" : 6979,
                    "sourceId" : "",
                    "startColumn" : 128,
                    "startLine" : 6979
                  }
                } ],
                "property" : "automaticExercise",
                "sourceInformation" : {
                  "endColumn" : 150,
                  "endLine" : 6979,
                  "sourceId" : "",
                  "startColumn" : 134,
                  "startLine" : 6979
                }
              } ],
              "sourceInformation" : {
                "endColumn" : 162,
                "endLine" : 6979,
                "sourceId" : "",
                "startColumn" : 153,
                "startLine" : 6979
              }
            } ],
            "sourceInformation" : {
              "endColumn" : 126,
              "endLine" : 6979,
              "sourceId" : "",
              "startColumn" : 125,
              "startLine" : 6979
            }
          } ],
          "sourceInformation" : {
            "endColumn" : 90,
            "endLine" : 6979,
            "sourceId" : "",
            "startColumn" : 89,
            "startLine" : 6979
          }
        } ],
        "parameters" : [ ]
      },
      "name" : "c1_choice"
    } ],
    "name" : "ExerciseProcedureOption",
    "package" : "FpML::model",
    "properties" : [ {
      "multiplicity" : {
        "lowerBound" : 0,
        "upperBound" : 1
      },
      "name" : "manualExercise",
      "taggedValues" : [ {
        "tag" : {
          "profile" : "meta::pure::profiles::doc",
          "value" : "doc"
        },
        "value" : "Specifies that the notice of exercise must be given by the buyer to the seller or seller's agent."
      } ],
      "type" : "FpML::model::Empty"
    }, {
      "multiplicity" : {
        "lowerBound" : 0,
        "upperBound" : 1
      },
      "name" : "automaticExercise",
      "taggedValues" : [ {
        "tag" : {
          "profile" : "meta::pure::profiles::doc",
          "value" : "doc"
        },
        "value" : "If automatic is specified then the notional amount of the underlying swap, not previously exercised under the swaption will be automatically exercised at the expriration time on the expiration date if at such time the buyer is in-the-money, provided that the difference between the settlement rate and the fixed rate under the relevant underlying swap is not less than the specified threshold rate. The term in-the-money is assumed to have the meaning defining in the 2000 ISDA Definitions, Section 17.4 In-the-money."
      } ],
      "type" : "FpML::model::Empty"
    } ],
    "taggedValues" : [ {
      "tag" : {
        "profile" : "meta::pure::profiles::doc",
        "value" : "doc"
      },
      "value" : "A type describing how notice of exercise should be given. This can be either manual or automatic."
    } ]
  }
}