{
  "classifierPath" : "meta::pure::metamodel::type::Enumeration",
  "content" : {
    "_type" : "Enumeration",
    "name" : "ExtensionStyleEnum",
    "package" : "FpML::model",
    "taggedValues" : [ {
      "tag" : {
        "profile" : "meta::pure::profiles::doc",
        "value" : "doc"
      },
      "value" : "Specifies a Repo or Security Lending arangement: Everdeen or Extendible."
    } ],
    "values" : [ {
      "value" : "Evergreen"
    }, {
      "value" : "Extendable"
    } ]
  }
}