{
  "classifierPath" : "meta::pure::metamodel::type::Enumeration",
  "content" : {
    "_type" : "Enumeration",
    "name" : "FeeElectionEnum",
    "package" : "FpML::model",
    "taggedValues" : [ {
      "tag" : {
        "profile" : "meta::pure::profiles::doc",
        "value" : "doc"
      },
      "value" : "Defines the fee type."
    } ],
    "values" : [ {
      "value" : "FlatFee"
    }, {
      "value" : "AmortizedFee"
    }, {
      "value" : "FundingFee"
    }, {
      "value" : "FlatFeeAndFundingFee"
    }, {
      "value" : "AmortizedFeeAndFundingFee"
    } ]
  }
}