{
  "classifierPath" : "meta::pure::metamodel::type::Enumeration",
  "content" : {
    "_type" : "Enumeration",
    "name" : "FpvFinalPriceElectionFallbackEnum",
    "package" : "FpML::model",
    "taggedValues" : [ {
      "tag" : {
        "profile" : "meta::pure::profiles::doc",
        "value" : "doc"
      },
      "value" : "Specifies the fallback provisions in respect to the applicable Futures Price Valuation."
    } ],
    "values" : [ {
      "value" : "FPVClose"
    }, {
      "value" : "FPVHedgeExecution"
    } ]
  }
}