{
  "classifierPath" : "meta::pure::metamodel::type::Enumeration",
  "content" : {
    "_type" : "Enumeration",
    "name" : "FxTargetStyleEnum",
    "package" : "FpML::model",
    "taggedValues" : [ {
      "tag" : {
        "profile" : "meta::pure::profiles::doc",
        "value" : "doc"
      },
      "value" : "Defines the method for calculating the gain in the period where the Target Knock-Out event occurs (Exact, Exclusive, Inclusive)."
    } ],
    "values" : [ {
      "value" : "Exact"
    }, {
      "value" : "Exclusive"
    }, {
      "value" : "Inclusive"
    } ]
  }
}