{
  "classifierPath" : "meta::pure::metamodel::type::Class",
  "content" : {
    "_type" : "class",
    "constraints" : [ {
      "functionDefinition" : {
        "_type" : "lambda",
        "body" : [ {
          "_type" : "func",
          "function" : "or",
          "parameters" : [ {
            "_type" : "func",
            "function" : "and",
            "parameters" : [ {
              "_type" : "func",
              "function" : "isNotEmpty",
              "parameters" : [ {
                "_type" : "property",
                "parameters" : [ {
                  "_type" : "var",
                  "name" : "this",
                  "sourceInformation" : {
                    "endColumn" : 19,
                    "endLine" : 7284,
                    "sourceId" : "",
                    "startColumn" : 15,
                    "startLine" : 7284
                  }
                } ],
                "property" : "referenceInformation",
                "sourceInformation" : {
                  "endColumn" : 40,
                  "endLine" : 7284,
                  "sourceId" : "",
                  "startColumn" : 21,
                  "startLine" : 7284
                }
              } ],
              "sourceInformation" : {
                "endColumn" : 52,
                "endLine" : 7284,
                "sourceId" : "",
                "startColumn" : 43,
                "startLine" : 7284
              }
            }, {
              "_type" : "func",
              "function" : "and",
              "parameters" : [ {
                "_type" : "func",
                "function" : "isEmpty",
                "parameters" : [ {
                  "_type" : "property",
                  "parameters" : [ {
                    "_type" : "var",
                    "name" : "this",
                    "sourceInformation" : {
                      "endColumn" : 64,
                      "endLine" : 7284,
                      "sourceId" : "",
                      "startColumn" : 60,
                      "startLine" : 7284
                    }
                  } ],
                  "property" : "indexReferenceInformation",
                  "sourceInformation" : {
                    "endColumn" : 90,
                    "endLine" : 7284,
                    "sourceId" : "",
                    "startColumn" : 66,
                    "startLine" : 7284
                  }
                } ],
                "sourceInformation" : {
                  "endColumn" : 99,
                  "endLine" : 7284,
                  "sourceId" : "",
                  "startColumn" : 93,
                  "startLine" : 7284
                }
              }, {
                "_type" : "func",
                "function" : "isEmpty",
                "parameters" : [ {
                  "_type" : "property",
                  "parameters" : [ {
                    "_type" : "var",
                    "name" : "this",
                    "sourceInformation" : {
                      "endColumn" : 110,
                      "endLine" : 7284,
                      "sourceId" : "",
                      "startColumn" : 106,
                      "startLine" : 7284
                    }
                  } ],
                  "property" : "basketReferenceInformation",
                  "sourceInformation" : {
                    "endColumn" : 137,
                    "endLine" : 7284,
                    "sourceId" : "",
                    "startColumn" : 112,
                    "startLine" : 7284
                  }
                } ],
                "sourceInformation" : {
                  "endColumn" : 146,
                  "endLine" : 7284,
                  "sourceId" : "",
                  "startColumn" : 140,
                  "startLine" : 7284
                }
              } ],
              "sourceInformation" : {
                "endColumn" : 104,
                "endLine" : 7284,
                "sourceId" : "",
                "startColumn" : 103,
                "startLine" : 7284
              }
            } ],
            "sourceInformation" : {
              "endColumn" : 57,
              "endLine" : 7284,
              "sourceId" : "",
              "startColumn" : 56,
              "startLine" : 7284
            }
          }, {
            "_type" : "func",
            "function" : "or",
            "parameters" : [ {
              "_type" : "func",
              "function" : "and",
              "parameters" : [ {
                "_type" : "func",
                "function" : "isEmpty",
                "parameters" : [ {
                  "_type" : "property",
                  "parameters" : [ {
                    "_type" : "var",
                    "name" : "this",
                    "sourceInformation" : {
                      "endColumn" : 161,
                      "endLine" : 7284,
                      "sourceId" : "",
                      "startColumn" : 157,
                      "startLine" : 7284
                    }
                  } ],
                  "property" : "referenceInformation",
                  "sourceInformation" : {
                    "endColumn" : 182,
                    "endLine" : 7284,
                    "sourceId" : "",
                    "startColumn" : 163,
                    "startLine" : 7284
                  }
                } ],
                "sourceInformation" : {
                  "endColumn" : 191,
                  "endLine" : 7284,
                  "sourceId" : "",
                  "startColumn" : 185,
                  "startLine" : 7284
                }
              }, {
                "_type" : "func",
                "function" : "and",
                "parameters" : [ {
                  "_type" : "func",
                  "function" : "isNotEmpty",
                  "parameters" : [ {
                    "_type" : "property",
                    "parameters" : [ {
                      "_type" : "var",
                      "name" : "this",
                      "sourceInformation" : {
                        "endColumn" : 203,
                        "endLine" : 7284,
                        "sourceId" : "",
                        "startColumn" : 199,
                        "startLine" : 7284
                      }
                    } ],
                    "property" : "indexReferenceInformation",
                    "sourceInformation" : {
                      "endColumn" : 229,
                      "endLine" : 7284,
                      "sourceId" : "",
                      "startColumn" : 205,
                      "startLine" : 7284
                    }
                  } ],
                  "sourceInformation" : {
                    "endColumn" : 241,
                    "endLine" : 7284,
                    "sourceId" : "",
                    "startColumn" : 232,
                    "startLine" : 7284
                  }
                }, {
                  "_type" : "func",
                  "function" : "isEmpty",
                  "parameters" : [ {
                    "_type" : "property",
                    "parameters" : [ {
                      "_type" : "var",
                      "name" : "this",
                      "sourceInformation" : {
                        "endColumn" : 252,
                        "endLine" : 7284,
                        "sourceId" : "",
                        "startColumn" : 248,
                        "startLine" : 7284
                      }
                    } ],
                    "property" : "basketReferenceInformation",
                    "sourceInformation" : {
                      "endColumn" : 279,
                      "endLine" : 7284,
                      "sourceId" : "",
                      "startColumn" : 254,
                      "startLine" : 7284
                    }
                  } ],
                  "sourceInformation" : {
                    "endColumn" : 288,
                    "endLine" : 7284,
                    "sourceId" : "",
                    "startColumn" : 282,
                    "startLine" : 7284
                  }
                } ],
                "sourceInformation" : {
                  "endColumn" : 246,
                  "endLine" : 7284,
                  "sourceId" : "",
                  "startColumn" : 245,
                  "startLine" : 7284
                }
              } ],
              "sourceInformation" : {
                "endColumn" : 196,
                "endLine" : 7284,
                "sourceId" : "",
                "startColumn" : 195,
                "startLine" : 7284
              }
            }, {
              "_type" : "func",
              "function" : "and",
              "parameters" : [ {
                "_type" : "func",
                "function" : "isEmpty",
                "parameters" : [ {
                  "_type" : "property",
                  "parameters" : [ {
                    "_type" : "var",
                    "name" : "this",
                    "sourceInformation" : {
                      "endColumn" : 302,
                      "endLine" : 7284,
                      "sourceId" : "",
                      "startColumn" : 298,
                      "startLine" : 7284
                    }
                  } ],
                  "property" : "referenceInformation",
                  "sourceInformation" : {
                    "endColumn" : 323,
                    "endLine" : 7284,
                    "sourceId" : "",
                    "startColumn" : 304,
                    "startLine" : 7284
                  }
                } ],
                "sourceInformation" : {
                  "endColumn" : 332,
                  "endLine" : 7284,
                  "sourceId" : "",
                  "startColumn" : 326,
                  "startLine" : 7284
                }
              }, {
                "_type" : "func",
                "function" : "and",
                "parameters" : [ {
                  "_type" : "func",
                  "function" : "isEmpty",
                  "parameters" : [ {
                    "_type" : "property",
                    "parameters" : [ {
                      "_type" : "var",
                      "name" : "this",
                      "sourceInformation" : {
                        "endColumn" : 344,
                        "endLine" : 7284,
                        "sourceId" : "",
                        "startColumn" : 340,
                        "startLine" : 7284
                      }
                    } ],
                    "property" : "indexReferenceInformation",
                    "sourceInformation" : {
                      "endColumn" : 370,
                      "endLine" : 7284,
                      "sourceId" : "",
                      "startColumn" : 346,
                      "startLine" : 7284
                    }
                  } ],
                  "sourceInformation" : {
                    "endColumn" : 379,
                    "endLine" : 7284,
                    "sourceId" : "",
                    "startColumn" : 373,
                    "startLine" : 7284
                  }
                }, {
                  "_type" : "func",
                  "function" : "isNotEmpty",
                  "parameters" : [ {
                    "_type" : "property",
                    "parameters" : [ {
                      "_type" : "var",
                      "name" : "this",
                      "sourceInformation" : {
                        "endColumn" : 390,
                        "endLine" : 7284,
                        "sourceId" : "",
                        "startColumn" : 386,
                        "startLine" : 7284
                      }
                    } ],
                    "property" : "basketReferenceInformation",
                    "sourceInformation" : {
                      "endColumn" : 417,
                      "endLine" : 7284,
                      "sourceId" : "",
                      "startColumn" : 392,
                      "startLine" : 7284
                    }
                  } ],
                  "sourceInformation" : {
                    "endColumn" : 429,
                    "endLine" : 7284,
                    "sourceId" : "",
                    "startColumn" : 420,
                    "startLine" : 7284
                  }
                } ],
                "sourceInformation" : {
                  "endColumn" : 384,
                  "endLine" : 7284,
                  "sourceId" : "",
                  "startColumn" : 383,
                  "startLine" : 7284
                }
              } ],
              "sourceInformation" : {
                "endColumn" : 337,
                "endLine" : 7284,
                "sourceId" : "",
                "startColumn" : 336,
                "startLine" : 7284
              }
            } ],
            "sourceInformation" : {
              "endColumn" : 295,
              "endLine" : 7284,
              "sourceId" : "",
              "startColumn" : 294,
              "startLine" : 7284
            }
          } ],
          "sourceInformation" : {
            "endColumn" : 153,
            "endLine" : 7284,
            "sourceId" : "",
            "startColumn" : 152,
            "startLine" : 7284
          }
        } ],
        "parameters" : [ ]
      },
      "name" : "c1_choice"
    } ],
    "name" : "GeneralTerms",
    "package" : "FpML::model",
    "properties" : [ {
      "multiplicity" : {
        "lowerBound" : 0,
        "upperBound" : 1
      },
      "name" : "effectiveDate",
      "taggedValues" : [ {
        "tag" : {
          "profile" : "meta::pure::profiles::doc",
          "value" : "doc"
        },
        "value" : "The first day of the term of the trade. This day may be subject to adjustment in accordance with a business day convention. ISDA 2003 Term: Effective Date."
      } ],
      "type" : "FpML::model::AdjustableDate2"
    }, {
      "multiplicity" : {
        "lowerBound" : 0,
        "upperBound" : 1
      },
      "name" : "scheduledTerminationDate",
      "taggedValues" : [ {
        "tag" : {
          "profile" : "meta::pure::profiles::doc",
          "value" : "doc"
        },
        "value" : "The scheduled date on which the credit protection will lapse. This day may be subject to adjustment in accordance with a business day convention. ISDA 2003 Term: Scheduled Termination Date."
      } ],
      "type" : "FpML::model::AdjustableDate2"
    }, {
      "multiplicity" : {
        "lowerBound" : 0,
        "upperBound" : 1
      },
      "name" : "buyerPartyReference",
      "taggedValues" : [ {
        "tag" : {
          "profile" : "meta::pure::profiles::doc",
          "value" : "doc"
        },
        "value" : "A reference to the party that buys this instrument, ie. pays for this instrument and receives the rights defined by it. See 2000 ISDA definitions Article 11.1 (b). In the case of FRAs this the fixed rate payer."
      } ],
      "type" : "FpML::model::PartyReference"
    }, {
      "multiplicity" : {
        "lowerBound" : 0,
        "upperBound" : 1
      },
      "name" : "buyerAccountReference",
      "taggedValues" : [ {
        "tag" : {
          "profile" : "meta::pure::profiles::doc",
          "value" : "doc"
        },
        "value" : "A reference to the account that buys this instrument."
      } ],
      "type" : "FpML::model::AccountReference"
    }, {
      "multiplicity" : {
        "lowerBound" : 0,
        "upperBound" : 1
      },
      "name" : "sellerPartyReference",
      "taggedValues" : [ {
        "tag" : {
          "profile" : "meta::pure::profiles::doc",
          "value" : "doc"
        },
        "value" : "A reference to the party that sells ('writes') this instrument, i.e. that grants the rights defined by this instrument and in return receives a payment for it. See 2000 ISDA definitions Article 11.1 (a). In the case of FRAs this is the floating rate payer."
      } ],
      "type" : "FpML::model::PartyReference"
    }, {
      "multiplicity" : {
        "lowerBound" : 0,
        "upperBound" : 1
      },
      "name" : "sellerAccountReference",
      "taggedValues" : [ {
        "tag" : {
          "profile" : "meta::pure::profiles::doc",
          "value" : "doc"
        },
        "value" : "A reference to the account that sells this instrument."
      } ],
      "type" : "FpML::model::AccountReference"
    }, {
      "multiplicity" : {
        "lowerBound" : 0,
        "upperBound" : 1
      },
      "name" : "buyerConvention",
      "taggedValues" : [ {
        "tag" : {
          "profile" : "meta::pure::profiles::doc",
          "value" : "doc"
        },
        "value" : "The purpose of this element is to disambiguate whether the buyer of the product effectively buys protection or whether he buys risk (and, hence, sells protection) in the case, such as high yields instruments, where no firm standard appears to exist at the execution level."
      } ],
      "type" : "FpML::model::BuyerConventionEnum"
    }, {
      "multiplicity" : {
        "lowerBound" : 0,
        "upperBound" : 1
      },
      "name" : "dateAdjustments",
      "taggedValues" : [ {
        "tag" : {
          "profile" : "meta::pure::profiles::doc",
          "value" : "doc"
        },
        "value" : "ISDA 2003 Terms: Business Day and Business Day Convention."
      } ],
      "type" : "FpML::model::BusinessDayAdjustments"
    }, {
      "multiplicity" : {
        "lowerBound" : 0,
        "upperBound" : 1
      },
      "name" : "referenceInformation",
      "taggedValues" : [ {
        "tag" : {
          "profile" : "meta::pure::profiles::doc",
          "value" : "doc"
        },
        "value" : "This element contains all the terms relevant to defining the reference entity and reference obligation(s)."
      } ],
      "type" : "FpML::model::ReferenceInformation"
    }, {
      "multiplicity" : {
        "lowerBound" : 0,
        "upperBound" : 1
      },
      "name" : "indexReferenceInformation",
      "taggedValues" : [ {
        "tag" : {
          "profile" : "meta::pure::profiles::doc",
          "value" : "doc"
        },
        "value" : "This element contains all the terms relevant to defining the Credit DefaultSwap Index."
      } ],
      "type" : "FpML::model::IndexReferenceInformation"
    }, {
      "multiplicity" : {
        "lowerBound" : 0,
        "upperBound" : 1
      },
      "name" : "basketReferenceInformation",
      "taggedValues" : [ {
        "tag" : {
          "profile" : "meta::pure::profiles::doc",
          "value" : "doc"
        },
        "value" : "This element contains all the terms relevant to defining the Credit Default Swap Basket."
      } ],
      "type" : "FpML::model::BasketReferenceInformation"
    }, {
      "multiplicity" : {
        "lowerBound" : 0
      },
      "name" : "additionalTerm",
      "taggedValues" : [ {
        "tag" : {
          "profile" : "meta::pure::profiles::doc",
          "value" : "doc"
        },
        "value" : "This element is used for representing information contained in the Additional Terms field of the 2003 Master Credit Derivatives confirm."
      } ],
      "type" : "FpML::model::AdditionalTerm"
    }, {
      "multiplicity" : {
        "lowerBound" : 0,
        "upperBound" : 1
      },
      "name" : "substitution",
      "taggedValues" : [ {
        "tag" : {
          "profile" : "meta::pure::profiles::doc",
          "value" : "doc"
        },
        "value" : "Value of this element set to 'true' indicates that substitution is applicable."
      } ],
      "type" : "Boolean"
    }, {
      "multiplicity" : {
        "lowerBound" : 0,
        "upperBound" : 1
      },
      "name" : "modifiedEquityDelivery",
      "taggedValues" : [ {
        "tag" : {
          "profile" : "meta::pure::profiles::doc",
          "value" : "doc"
        },
        "value" : "Value of this element set to 'true' indicates that modified equity delivery is applicable."
      } ],
      "type" : "Boolean"
    } ]
  }
}