{
  "classifierPath" : "meta::pure::metamodel::type::Enumeration",
  "content" : {
    "_type" : "Enumeration",
    "name" : "InflationCalculationMethodEnum",
    "package" : "FpML::model",
    "taggedValues" : [ {
      "tag" : {
        "profile" : "meta::pure::profiles::doc",
        "value" : "doc"
      },
      "value" : "Code values for different ways of using inflation indexes in formulas"
    } ],
    "values" : [ {
      "value" : "Ratio"
    }, {
      "value" : "Return"
    }, {
      "value" : "Spread"
    } ]
  }
}