{
  "classifierPath" : "meta::pure::metamodel::type::Class",
  "content" : {
    "_type" : "class",
    "constraints" : [ {
      "functionDefinition" : {
        "_type" : "lambda",
        "body" : [ {
          "_type" : "func",
          "function" : "greaterThanEqual",
          "parameters" : [ {
            "_type" : "func",
            "function" : "length",
            "parameters" : [ {
              "_type" : "property",
              "parameters" : [ {
                "_type" : "var",
                "name" : "this",
                "sourceInformation" : {
                  "endColumn" : 18,
                  "endLine" : 7514,
                  "sourceId" : "",
                  "startColumn" : 14,
                  "startLine" : 7514
                }
              } ],
              "property" : "instrumentIdScheme",
              "sourceInformation" : {
                "endColumn" : 37,
                "endLine" : 7514,
                "sourceId" : "",
                "startColumn" : 20,
                "startLine" : 7514
              }
            } ],
            "sourceInformation" : {
              "endColumn" : 45,
              "endLine" : 7514,
              "sourceId" : "",
              "startColumn" : 40,
              "startLine" : 7514
            }
          }, {
            "_type" : "integer",
            "multiplicity" : {
              "lowerBound" : 1,
              "upperBound" : 1
            },
            "sourceInformation" : {
              "endColumn" : 52,
              "endLine" : 7514,
              "sourceId" : "",
              "startColumn" : 52,
              "startLine" : 7514
            },
            "values" : [ 1 ]
          } ],
          "sourceInformation" : {
            "endColumn" : 52,
            "endLine" : 7514,
            "sourceId" : "",
            "startColumn" : 49,
            "startLine" : 7514
          }
        } ],
        "parameters" : [ ]
      },
      "name" : "c1_length"
    }, {
      "functionDefinition" : {
        "_type" : "lambda",
        "body" : [ {
          "_type" : "func",
          "function" : "greaterThanEqual",
          "parameters" : [ {
            "_type" : "func",
            "function" : "length",
            "parameters" : [ {
              "_type" : "property",
              "parameters" : [ {
                "_type" : "var",
                "name" : "this",
                "sourceInformation" : {
                  "endColumn" : 18,
                  "endLine" : 7515,
                  "sourceId" : "",
                  "startColumn" : 14,
                  "startLine" : 7515
                }
              } ],
              "property" : "value",
              "sourceInformation" : {
                "endColumn" : 24,
                "endLine" : 7515,
                "sourceId" : "",
                "startColumn" : 20,
                "startLine" : 7515
              }
            } ],
            "sourceInformation" : {
              "endColumn" : 32,
              "endLine" : 7515,
              "sourceId" : "",
              "startColumn" : 27,
              "startLine" : 7515
            }
          }, {
            "_type" : "integer",
            "multiplicity" : {
              "lowerBound" : 1,
              "upperBound" : 1
            },
            "sourceInformation" : {
              "endColumn" : 39,
              "endLine" : 7515,
              "sourceId" : "",
              "startColumn" : 39,
              "startLine" : 7515
            },
            "values" : [ 1 ]
          } ],
          "sourceInformation" : {
            "endColumn" : 39,
            "endLine" : 7515,
            "sourceId" : "",
            "startColumn" : 36,
            "startLine" : 7515
          }
        } ],
        "parameters" : [ ]
      },
      "name" : "c2_length"
    }, {
      "functionDefinition" : {
        "_type" : "lambda",
        "body" : [ {
          "_type" : "func",
          "function" : "lessThanEqual",
          "parameters" : [ {
            "_type" : "func",
            "function" : "length",
            "parameters" : [ {
              "_type" : "property",
              "parameters" : [ {
                "_type" : "var",
                "name" : "this",
                "sourceInformation" : {
                  "endColumn" : 18,
                  "endLine" : 7516,
                  "sourceId" : "",
                  "startColumn" : 14,
                  "startLine" : 7516
                }
              } ],
              "property" : "value",
              "sourceInformation" : {
                "endColumn" : 24,
                "endLine" : 7516,
                "sourceId" : "",
                "startColumn" : 20,
                "startLine" : 7516
              }
            } ],
            "sourceInformation" : {
              "endColumn" : 32,
              "endLine" : 7516,
              "sourceId" : "",
              "startColumn" : 27,
              "startLine" : 7516
            }
          }, {
            "_type" : "integer",
            "multiplicity" : {
              "lowerBound" : 1,
              "upperBound" : 1
            },
            "sourceInformation" : {
              "endColumn" : 41,
              "endLine" : 7516,
              "sourceId" : "",
              "startColumn" : 39,
              "startLine" : 7516
            },
            "values" : [ 255 ]
          } ],
          "sourceInformation" : {
            "endColumn" : 41,
            "endLine" : 7516,
            "sourceId" : "",
            "startColumn" : 36,
            "startLine" : 7516
          }
        } ],
        "parameters" : [ ]
      },
      "name" : "c3_length"
    } ],
    "name" : "InstrumentId",
    "package" : "FpML::model",
    "properties" : [ {
      "multiplicity" : {
        "lowerBound" : 1,
        "upperBound" : 1
      },
      "name" : "instrumentIdScheme",
      "type" : "String"
    }, {
      "multiplicity" : {
        "lowerBound" : 1,
        "upperBound" : 1
      },
      "name" : "value",
      "type" : "String"
    } ],
    "taggedValues" : [ {
      "tag" : {
        "profile" : "meta::pure::profiles::doc",
        "value" : "doc"
      },
      "value" : "A short form unique identifier for a security."
    } ]
  }
}