{
  "classifierPath" : "meta::pure::metamodel::type::Class",
  "content" : {
    "_type" : "class",
    "name" : "InterestShortFall",
    "package" : "FpML::model",
    "properties" : [ {
      "multiplicity" : {
        "lowerBound" : 0,
        "upperBound" : 1
      },
      "name" : "interestShortfallCap",
      "taggedValues" : [ {
        "tag" : {
          "profile" : "meta::pure::profiles::doc",
          "value" : "doc"
        },
        "value" : "Specifies the nature of the interest Shortfall cap (i.e. Fixed Cap or Variable Cap) in the case where it is applicable. ISDA 2003 Term: Interest Shortfall Cap."
      } ],
      "type" : "FpML::model::InterestShortfallCapEnum"
    }, {
      "multiplicity" : {
        "lowerBound" : 0,
        "upperBound" : 1
      },
      "name" : "compounding",
      "type" : "Boolean"
    }, {
      "multiplicity" : {
        "lowerBound" : 0,
        "upperBound" : 1
      },
      "name" : "rateSource",
      "taggedValues" : [ {
        "tag" : {
          "profile" : "meta::pure::profiles::doc",
          "value" : "doc"
        },
        "value" : "The rate source in the case of a variable cap."
      } ],
      "type" : "FpML::model::FloatingRateIndex"
    } ]
  }
}