{
  "classifierPath" : "meta::pure::metamodel::type::Class",
  "content" : {
    "_type" : "class",
    "name" : "LimitedCreditDefaultSwap",
    "package" : "FpML::model",
    "properties" : [ {
      "multiplicity" : {
        "lowerBound" : 0,
        "upperBound" : 1
      },
      "name" : "generalTerms",
      "taggedValues" : [ {
        "tag" : {
          "profile" : "meta::pure::profiles::doc",
          "value" : "doc"
        },
        "value" : "This element contains all the data that appears in the section entitled '1. General Terms' in the 2003 ISDA Credit Derivatives Confirmation."
      } ],
      "type" : "FpML::model::GeneralTerms"
    }, {
      "multiplicity" : {
        "lowerBound" : 0,
        "upperBound" : 1
      },
      "name" : "feeLeg",
      "taggedValues" : [ {
        "tag" : {
          "profile" : "meta::pure::profiles::doc",
          "value" : "doc"
        },
        "value" : "This element contains all the terms relevant to defining the fixed amounts/payments per the applicable ISDA definitions."
      } ],
      "type" : "FpML::model::FeeLeg"
    }, {
      "multiplicity" : {
        "lowerBound" : 0
      },
      "name" : "protectionTerms",
      "taggedValues" : [ {
        "tag" : {
          "profile" : "meta::pure::profiles::doc",
          "value" : "doc"
        },
        "value" : "This element contains all the terms relevant to defining the applicable floating rate payer calculation amount, credit events and associated conditions to settlement, and reference obligations."
      } ],
      "type" : "FpML::model::ProtectionTerms"
    } ],
    "taggedValues" : [ {
      "tag" : {
        "profile" : "meta::pure::profiles::doc",
        "value" : "doc"
      },
      "value" : "A limited version of the CDS type used as an underlyer to CDS options in Transparency view, to avoid requiring product type etc."
    } ]
  }
}