{
  "classifierPath" : "meta::pure::metamodel::type::Class",
  "content" : {
    "_type" : "class",
    "constraints" : [ {
      "functionDefinition" : {
        "_type" : "lambda",
        "body" : [ {
          "_type" : "func",
          "function" : "forAll",
          "parameters" : [ {
            "_type" : "property",
            "parameters" : [ {
              "_type" : "var",
              "name" : "this",
              "sourceInformation" : {
                "endColumn" : 18,
                "endLine" : 7682,
                "sourceId" : "",
                "startColumn" : 14,
                "startLine" : 7682
              }
            } ],
            "property" : "qualifyingParticipationSeller",
            "sourceInformation" : {
              "endColumn" : 48,
              "endLine" : 7682,
              "sourceId" : "",
              "startColumn" : 20,
              "startLine" : 7682
            }
          }, {
            "_type" : "lambda",
            "body" : [ {
              "_type" : "func",
              "function" : "greaterThanEqual",
              "parameters" : [ {
                "_type" : "func",
                "function" : "length",
                "parameters" : [ {
                  "_type" : "var",
                  "name" : "x",
                  "sourceInformation" : {
                    "endColumn" : 72,
                    "endLine" : 7682,
                    "sourceId" : "",
                    "startColumn" : 71,
                    "startLine" : 7682
                  }
                } ],
                "sourceInformation" : {
                  "endColumn" : 80,
                  "endLine" : 7682,
                  "sourceId" : "",
                  "startColumn" : 75,
                  "startLine" : 7682
                }
              }, {
                "_type" : "integer",
                "multiplicity" : {
                  "lowerBound" : 1,
                  "upperBound" : 1
                },
                "sourceInformation" : {
                  "endColumn" : 87,
                  "endLine" : 7682,
                  "sourceId" : "",
                  "startColumn" : 87,
                  "startLine" : 7682
                },
                "values" : [ 1 ]
              } ],
              "sourceInformation" : {
                "endColumn" : 87,
                "endLine" : 7682,
                "sourceId" : "",
                "startColumn" : 84,
                "startLine" : 7682
              }
            } ],
            "parameters" : [ {
              "_type" : "var",
              "class" : "String",
              "multiplicity" : {
                "lowerBound" : 1,
                "upperBound" : 1
              },
              "name" : "x",
              "sourceInformation" : {
                "endColumn" : 66,
                "endLine" : 7682,
                "sourceId" : "",
                "startColumn" : 61,
                "startLine" : 7682
              }
            } ],
            "sourceInformation" : {
              "endColumn" : 87,
              "endLine" : 7682,
              "sourceId" : "",
              "startColumn" : 70,
              "startLine" : 7682
            }
          } ],
          "sourceInformation" : {
            "endColumn" : 56,
            "endLine" : 7682,
            "sourceId" : "",
            "startColumn" : 51,
            "startLine" : 7682
          }
        } ],
        "parameters" : [ ]
      },
      "name" : "c1_length"
    } ],
    "name" : "LoanParticipation",
    "package" : "FpML::model",
    "properties" : [ {
      "multiplicity" : {
        "lowerBound" : 0,
        "upperBound" : 1
      },
      "name" : "qualifyingParticipationSeller",
      "taggedValues" : [ {
        "tag" : {
          "profile" : "meta::pure::profiles::doc",
          "value" : "doc"
        },
        "value" : "If Direct Loan Participation is specified as a deliverable obligation characteristic, this specifies any requirements for the Qualifying Participation Seller. The requirements may be listed free-form. ISDA 2003 Term: Qualifying Participation Seller"
      } ],
      "type" : "String"
    } ],
    "superTypes" : [ "FpML::model::PcDeliverableObligationCharac" ]
  }
}