{
  "classifierPath" : "meta::pure::metamodel::type::Enumeration",
  "content" : {
    "_type" : "Enumeration",
    "name" : "LoanTradingAccruingFeeTypeEnum",
    "package" : "FpML::model",
    "taggedValues" : [ {
      "tag" : {
        "profile" : "meta::pure::profiles::doc",
        "value" : "doc"
      },
      "value" : "A list of accruing fee types associated with a facility."
    } ],
    "values" : [ {
      "value" : "Commitment"
    }, {
      "value" : "Facility"
    }, {
      "value" : "LetterOfCreditIssuance"
    }, {
      "value" : "Ticking"
    }, {
      "value" : "Utilization"
    } ]
  }
}