{
  "classifierPath" : "meta::pure::metamodel::type::Enumeration",
  "content" : {
    "_type" : "Enumeration",
    "name" : "LoanTradingNonAccruingFeeTypeEnum",
    "package" : "FpML::model",
    "taggedValues" : [ {
      "tag" : {
        "profile" : "meta::pure::profiles::doc",
        "value" : "doc"
      },
      "value" : "A list of accruing fee types associated with a facility."
    } ],
    "values" : [ {
      "value" : "Amendment"
    }, {
      "value" : "Consent"
    }, {
      "value" : "Facility"
    }, {
      "value" : "FacilityExension"
    }, {
      "value" : "Upfront"
    }, {
      "value" : "Waiver"
    } ]
  }
}