{
  "classifierPath" : "meta::pure::metamodel::type::Enumeration",
  "content" : {
    "_type" : "Enumeration",
    "name" : "NotionalAdjustmentEnum",
    "package" : "FpML::model",
    "taggedValues" : [ {
      "tag" : {
        "profile" : "meta::pure::profiles::doc",
        "value" : "doc"
      },
      "value" : "The conditions that govern the adjustment to the number of units of the equity swap."
    } ],
    "values" : [ {
      "value" : "Execution"
    }, {
      "value" : "PortfolioRebalancing"
    }, {
      "value" : "Standard"
    } ]
  }
}