{
  "classifierPath" : "meta::pure::metamodel::type::Class",
  "content" : {
    "_type" : "class",
    "constraints" : [ {
      "functionDefinition" : {
        "_type" : "lambda",
        "body" : [ {
          "_type" : "func",
          "function" : "forAll",
          "parameters" : [ {
            "_type" : "property",
            "parameters" : [ {
              "_type" : "var",
              "name" : "this",
              "sourceInformation" : {
                "endColumn" : 18,
                "endLine" : 7995,
                "sourceId" : "",
                "startColumn" : 14,
                "startLine" : 7995
              }
            } ],
            "property" : "excluded",
            "sourceInformation" : {
              "endColumn" : 27,
              "endLine" : 7995,
              "sourceId" : "",
              "startColumn" : 20,
              "startLine" : 7995
            }
          }, {
            "_type" : "lambda",
            "body" : [ {
              "_type" : "func",
              "function" : "greaterThanEqual",
              "parameters" : [ {
                "_type" : "func",
                "function" : "length",
                "parameters" : [ {
                  "_type" : "var",
                  "name" : "x",
                  "sourceInformation" : {
                    "endColumn" : 51,
                    "endLine" : 7995,
                    "sourceId" : "",
                    "startColumn" : 50,
                    "startLine" : 7995
                  }
                } ],
                "sourceInformation" : {
                  "endColumn" : 59,
                  "endLine" : 7995,
                  "sourceId" : "",
                  "startColumn" : 54,
                  "startLine" : 7995
                }
              }, {
                "_type" : "integer",
                "multiplicity" : {
                  "lowerBound" : 1,
                  "upperBound" : 1
                },
                "sourceInformation" : {
                  "endColumn" : 66,
                  "endLine" : 7995,
                  "sourceId" : "",
                  "startColumn" : 66,
                  "startLine" : 7995
                },
                "values" : [ 1 ]
              } ],
              "sourceInformation" : {
                "endColumn" : 66,
                "endLine" : 7995,
                "sourceId" : "",
                "startColumn" : 63,
                "startLine" : 7995
              }
            } ],
            "parameters" : [ {
              "_type" : "var",
              "class" : "String",
              "multiplicity" : {
                "lowerBound" : 1,
                "upperBound" : 1
              },
              "name" : "x",
              "sourceInformation" : {
                "endColumn" : 45,
                "endLine" : 7995,
                "sourceId" : "",
                "startColumn" : 40,
                "startLine" : 7995
              }
            } ],
            "sourceInformation" : {
              "endColumn" : 66,
              "endLine" : 7995,
              "sourceId" : "",
              "startColumn" : 49,
              "startLine" : 7995
            }
          } ],
          "sourceInformation" : {
            "endColumn" : 35,
            "endLine" : 7995,
            "sourceId" : "",
            "startColumn" : 30,
            "startLine" : 7995
          }
        } ],
        "parameters" : [ ]
      },
      "name" : "c1_length"
    }, {
      "functionDefinition" : {
        "_type" : "lambda",
        "body" : [ {
          "_type" : "func",
          "function" : "forAll",
          "parameters" : [ {
            "_type" : "property",
            "parameters" : [ {
              "_type" : "var",
              "name" : "this",
              "sourceInformation" : {
                "endColumn" : 18,
                "endLine" : 7996,
                "sourceId" : "",
                "startColumn" : 14,
                "startLine" : 7996
              }
            } ],
            "property" : "othReferenceEntityObligations",
            "sourceInformation" : {
              "endColumn" : 48,
              "endLine" : 7996,
              "sourceId" : "",
              "startColumn" : 20,
              "startLine" : 7996
            }
          }, {
            "_type" : "lambda",
            "body" : [ {
              "_type" : "func",
              "function" : "greaterThanEqual",
              "parameters" : [ {
                "_type" : "func",
                "function" : "length",
                "parameters" : [ {
                  "_type" : "var",
                  "name" : "x",
                  "sourceInformation" : {
                    "endColumn" : 72,
                    "endLine" : 7996,
                    "sourceId" : "",
                    "startColumn" : 71,
                    "startLine" : 7996
                  }
                } ],
                "sourceInformation" : {
                  "endColumn" : 80,
                  "endLine" : 7996,
                  "sourceId" : "",
                  "startColumn" : 75,
                  "startLine" : 7996
                }
              }, {
                "_type" : "integer",
                "multiplicity" : {
                  "lowerBound" : 1,
                  "upperBound" : 1
                },
                "sourceInformation" : {
                  "endColumn" : 87,
                  "endLine" : 7996,
                  "sourceId" : "",
                  "startColumn" : 87,
                  "startLine" : 7996
                },
                "values" : [ 1 ]
              } ],
              "sourceInformation" : {
                "endColumn" : 87,
                "endLine" : 7996,
                "sourceId" : "",
                "startColumn" : 84,
                "startLine" : 7996
              }
            } ],
            "parameters" : [ {
              "_type" : "var",
              "class" : "String",
              "multiplicity" : {
                "lowerBound" : 1,
                "upperBound" : 1
              },
              "name" : "x",
              "sourceInformation" : {
                "endColumn" : 66,
                "endLine" : 7996,
                "sourceId" : "",
                "startColumn" : 61,
                "startLine" : 7996
              }
            } ],
            "sourceInformation" : {
              "endColumn" : 87,
              "endLine" : 7996,
              "sourceId" : "",
              "startColumn" : 70,
              "startLine" : 7996
            }
          } ],
          "sourceInformation" : {
            "endColumn" : 56,
            "endLine" : 7996,
            "sourceId" : "",
            "startColumn" : 51,
            "startLine" : 7996
          }
        } ],
        "parameters" : [ ]
      },
      "name" : "c2_length"
    }, {
      "functionDefinition" : {
        "_type" : "lambda",
        "body" : [ {
          "_type" : "func",
          "function" : "or",
          "parameters" : [ {
            "_type" : "func",
            "function" : "and",
            "parameters" : [ {
              "_type" : "func",
              "function" : "isNotEmpty",
              "parameters" : [ {
                "_type" : "property",
                "parameters" : [ {
                  "_type" : "var",
                  "name" : "this",
                  "sourceInformation" : {
                    "endColumn" : 19,
                    "endLine" : 7997,
                    "sourceId" : "",
                    "startColumn" : 15,
                    "startLine" : 7997
                  }
                } ],
                "property" : "fullFaithAndCreditObLiability",
                "sourceInformation" : {
                  "endColumn" : 49,
                  "endLine" : 7997,
                  "sourceId" : "",
                  "startColumn" : 21,
                  "startLine" : 7997
                }
              } ],
              "sourceInformation" : {
                "endColumn" : 61,
                "endLine" : 7997,
                "sourceId" : "",
                "startColumn" : 52,
                "startLine" : 7997
              }
            }, {
              "_type" : "func",
              "function" : "and",
              "parameters" : [ {
                "_type" : "func",
                "function" : "isEmpty",
                "parameters" : [ {
                  "_type" : "property",
                  "parameters" : [ {
                    "_type" : "var",
                    "name" : "this",
                    "sourceInformation" : {
                      "endColumn" : 73,
                      "endLine" : 7997,
                      "sourceId" : "",
                      "startColumn" : 69,
                      "startLine" : 7997
                    }
                  } ],
                  "property" : "generalFundObligationLiability",
                  "sourceInformation" : {
                    "endColumn" : 104,
                    "endLine" : 7997,
                    "sourceId" : "",
                    "startColumn" : 75,
                    "startLine" : 7997
                  }
                } ],
                "sourceInformation" : {
                  "endColumn" : 113,
                  "endLine" : 7997,
                  "sourceId" : "",
                  "startColumn" : 107,
                  "startLine" : 7997
                }
              }, {
                "_type" : "func",
                "function" : "isEmpty",
                "parameters" : [ {
                  "_type" : "property",
                  "parameters" : [ {
                    "_type" : "var",
                    "name" : "this",
                    "sourceInformation" : {
                      "endColumn" : 124,
                      "endLine" : 7997,
                      "sourceId" : "",
                      "startColumn" : 120,
                      "startLine" : 7997
                    }
                  } ],
                  "property" : "revenueObligationLiability",
                  "sourceInformation" : {
                    "endColumn" : 151,
                    "endLine" : 7997,
                    "sourceId" : "",
                    "startColumn" : 126,
                    "startLine" : 7997
                  }
                } ],
                "sourceInformation" : {
                  "endColumn" : 160,
                  "endLine" : 7997,
                  "sourceId" : "",
                  "startColumn" : 154,
                  "startLine" : 7997
                }
              } ],
              "sourceInformation" : {
                "endColumn" : 118,
                "endLine" : 7997,
                "sourceId" : "",
                "startColumn" : 117,
                "startLine" : 7997
              }
            } ],
            "sourceInformation" : {
              "endColumn" : 66,
              "endLine" : 7997,
              "sourceId" : "",
              "startColumn" : 65,
              "startLine" : 7997
            }
          }, {
            "_type" : "func",
            "function" : "or",
            "parameters" : [ {
              "_type" : "func",
              "function" : "and",
              "parameters" : [ {
                "_type" : "func",
                "function" : "isEmpty",
                "parameters" : [ {
                  "_type" : "property",
                  "parameters" : [ {
                    "_type" : "var",
                    "name" : "this",
                    "sourceInformation" : {
                      "endColumn" : 175,
                      "endLine" : 7997,
                      "sourceId" : "",
                      "startColumn" : 171,
                      "startLine" : 7997
                    }
                  } ],
                  "property" : "fullFaithAndCreditObLiability",
                  "sourceInformation" : {
                    "endColumn" : 205,
                    "endLine" : 7997,
                    "sourceId" : "",
                    "startColumn" : 177,
                    "startLine" : 7997
                  }
                } ],
                "sourceInformation" : {
                  "endColumn" : 214,
                  "endLine" : 7997,
                  "sourceId" : "",
                  "startColumn" : 208,
                  "startLine" : 7997
                }
              }, {
                "_type" : "func",
                "function" : "and",
                "parameters" : [ {
                  "_type" : "func",
                  "function" : "isNotEmpty",
                  "parameters" : [ {
                    "_type" : "property",
                    "parameters" : [ {
                      "_type" : "var",
                      "name" : "this",
                      "sourceInformation" : {
                        "endColumn" : 226,
                        "endLine" : 7997,
                        "sourceId" : "",
                        "startColumn" : 222,
                        "startLine" : 7997
                      }
                    } ],
                    "property" : "generalFundObligationLiability",
                    "sourceInformation" : {
                      "endColumn" : 257,
                      "endLine" : 7997,
                      "sourceId" : "",
                      "startColumn" : 228,
                      "startLine" : 7997
                    }
                  } ],
                  "sourceInformation" : {
                    "endColumn" : 269,
                    "endLine" : 7997,
                    "sourceId" : "",
                    "startColumn" : 260,
                    "startLine" : 7997
                  }
                }, {
                  "_type" : "func",
                  "function" : "isEmpty",
                  "parameters" : [ {
                    "_type" : "property",
                    "parameters" : [ {
                      "_type" : "var",
                      "name" : "this",
                      "sourceInformation" : {
                        "endColumn" : 280,
                        "endLine" : 7997,
                        "sourceId" : "",
                        "startColumn" : 276,
                        "startLine" : 7997
                      }
                    } ],
                    "property" : "revenueObligationLiability",
                    "sourceInformation" : {
                      "endColumn" : 307,
                      "endLine" : 7997,
                      "sourceId" : "",
                      "startColumn" : 282,
                      "startLine" : 7997
                    }
                  } ],
                  "sourceInformation" : {
                    "endColumn" : 316,
                    "endLine" : 7997,
                    "sourceId" : "",
                    "startColumn" : 310,
                    "startLine" : 7997
                  }
                } ],
                "sourceInformation" : {
                  "endColumn" : 274,
                  "endLine" : 7997,
                  "sourceId" : "",
                  "startColumn" : 273,
                  "startLine" : 7997
                }
              } ],
              "sourceInformation" : {
                "endColumn" : 219,
                "endLine" : 7997,
                "sourceId" : "",
                "startColumn" : 218,
                "startLine" : 7997
              }
            }, {
              "_type" : "func",
              "function" : "and",
              "parameters" : [ {
                "_type" : "func",
                "function" : "isEmpty",
                "parameters" : [ {
                  "_type" : "property",
                  "parameters" : [ {
                    "_type" : "var",
                    "name" : "this",
                    "sourceInformation" : {
                      "endColumn" : 330,
                      "endLine" : 7997,
                      "sourceId" : "",
                      "startColumn" : 326,
                      "startLine" : 7997
                    }
                  } ],
                  "property" : "fullFaithAndCreditObLiability",
                  "sourceInformation" : {
                    "endColumn" : 360,
                    "endLine" : 7997,
                    "sourceId" : "",
                    "startColumn" : 332,
                    "startLine" : 7997
                  }
                } ],
                "sourceInformation" : {
                  "endColumn" : 369,
                  "endLine" : 7997,
                  "sourceId" : "",
                  "startColumn" : 363,
                  "startLine" : 7997
                }
              }, {
                "_type" : "func",
                "function" : "and",
                "parameters" : [ {
                  "_type" : "func",
                  "function" : "isEmpty",
                  "parameters" : [ {
                    "_type" : "property",
                    "parameters" : [ {
                      "_type" : "var",
                      "name" : "this",
                      "sourceInformation" : {
                        "endColumn" : 381,
                        "endLine" : 7997,
                        "sourceId" : "",
                        "startColumn" : 377,
                        "startLine" : 7997
                      }
                    } ],
                    "property" : "generalFundObligationLiability",
                    "sourceInformation" : {
                      "endColumn" : 412,
                      "endLine" : 7997,
                      "sourceId" : "",
                      "startColumn" : 383,
                      "startLine" : 7997
                    }
                  } ],
                  "sourceInformation" : {
                    "endColumn" : 421,
                    "endLine" : 7997,
                    "sourceId" : "",
                    "startColumn" : 415,
                    "startLine" : 7997
                  }
                }, {
                  "_type" : "func",
                  "function" : "isNotEmpty",
                  "parameters" : [ {
                    "_type" : "property",
                    "parameters" : [ {
                      "_type" : "var",
                      "name" : "this",
                      "sourceInformation" : {
                        "endColumn" : 432,
                        "endLine" : 7997,
                        "sourceId" : "",
                        "startColumn" : 428,
                        "startLine" : 7997
                      }
                    } ],
                    "property" : "revenueObligationLiability",
                    "sourceInformation" : {
                      "endColumn" : 459,
                      "endLine" : 7997,
                      "sourceId" : "",
                      "startColumn" : 434,
                      "startLine" : 7997
                    }
                  } ],
                  "sourceInformation" : {
                    "endColumn" : 471,
                    "endLine" : 7997,
                    "sourceId" : "",
                    "startColumn" : 462,
                    "startLine" : 7997
                  }
                } ],
                "sourceInformation" : {
                  "endColumn" : 426,
                  "endLine" : 7997,
                  "sourceId" : "",
                  "startColumn" : 425,
                  "startLine" : 7997
                }
              } ],
              "sourceInformation" : {
                "endColumn" : 374,
                "endLine" : 7997,
                "sourceId" : "",
                "startColumn" : 373,
                "startLine" : 7997
              }
            } ],
            "sourceInformation" : {
              "endColumn" : 323,
              "endLine" : 7997,
              "sourceId" : "",
              "startColumn" : 322,
              "startLine" : 7997
            }
          } ],
          "sourceInformation" : {
            "endColumn" : 167,
            "endLine" : 7997,
            "sourceId" : "",
            "startColumn" : 166,
            "startLine" : 7997
          }
        } ],
        "parameters" : [ ]
      },
      "name" : "c3_choice"
    } ],
    "name" : "Obligations",
    "package" : "FpML::model",
    "properties" : [ {
      "multiplicity" : {
        "lowerBound" : 0,
        "upperBound" : 1
      },
      "name" : "category",
      "taggedValues" : [ {
        "tag" : {
          "profile" : "meta::pure::profiles::doc",
          "value" : "doc"
        },
        "value" : "Used in both obligations and deliverable obligations to represent a class or type of securities which apply. ISDA 2003 Term: Obligation Category/Deliverable Obligation Category"
      } ],
      "type" : "FpML::model::ObligationCategoryEnum"
    }, {
      "multiplicity" : {
        "lowerBound" : 0,
        "upperBound" : 1
      },
      "name" : "notSubordinated",
      "taggedValues" : [ {
        "tag" : {
          "profile" : "meta::pure::profiles::doc",
          "value" : "doc"
        },
        "value" : "An obligation and deliverable obligation characteristic. An obligation that ranks at least equal with the most senior Reference Obligation in priority of payment or, if no Reference Obligation is specified in the related Confirmation, the obligations of the Reference Entity that are senior. ISDA 2003 Term: Not Subordinated"
      } ],
      "type" : "Boolean"
    }, {
      "multiplicity" : {
        "lowerBound" : 0,
        "upperBound" : 1
      },
      "name" : "specifiedCurrency",
      "taggedValues" : [ {
        "tag" : {
          "profile" : "meta::pure::profiles::doc",
          "value" : "doc"
        },
        "value" : "An obligation and deliverable obligation characteristic. The currency or currencies in which an obligation or deliverable obligation must be payable. ISDA 2003 Term: Specified Currency"
      } ],
      "type" : "FpML::model::SpecifiedCurrency"
    }, {
      "multiplicity" : {
        "lowerBound" : 0,
        "upperBound" : 1
      },
      "name" : "notSovereignLender",
      "taggedValues" : [ {
        "tag" : {
          "profile" : "meta::pure::profiles::doc",
          "value" : "doc"
        },
        "value" : "An obligation and deliverable obligation characteristic. Any obligation that is not primarily (majority) owed to a Sovereign or Supranational Organization. ISDA 2003 Term: Not Sovereign Lender"
      } ],
      "type" : "Boolean"
    }, {
      "multiplicity" : {
        "lowerBound" : 0,
        "upperBound" : 1
      },
      "name" : "notDomesticCurrency",
      "taggedValues" : [ {
        "tag" : {
          "profile" : "meta::pure::profiles::doc",
          "value" : "doc"
        },
        "value" : "An obligation and deliverable obligation characteristic. Any obligation that is payable in any currency other than the domestic currency. Domestic currency is either the currency so specified or, if no currency is specified, the currency of (a) the reference entity, if the reference entity is a sovereign, or (b) the jurisdiction in which the relevant reference entity is organised, if the reference entity is not a sovereign. ISDA 2003 Term: Not Domestic Currency"
      } ],
      "type" : "FpML::model::NotDomesticCurrency"
    }, {
      "multiplicity" : {
        "lowerBound" : 0,
        "upperBound" : 1
      },
      "name" : "notDomesticLaw",
      "taggedValues" : [ {
        "tag" : {
          "profile" : "meta::pure::profiles::doc",
          "value" : "doc"
        },
        "value" : "An obligation and deliverable obligation characteristic. If the reference entity is a Sovereign, this means any obligation that is not subject to the laws of the reference entity. If the reference entity is not a sovereign, this means any obligation that is not subject to the laws of the jurisdiction of the reference entity. ISDA 2003 Term: Not Domestic Law"
      } ],
      "type" : "Boolean"
    }, {
      "multiplicity" : {
        "lowerBound" : 0,
        "upperBound" : 1
      },
      "name" : "listed",
      "taggedValues" : [ {
        "tag" : {
          "profile" : "meta::pure::profiles::doc",
          "value" : "doc"
        },
        "value" : "An obligation and deliverable obligation characteristic. Indicates whether or not the obligation is quoted, listed or ordinarily purchased and sold on an exchange. ISDA 2003 Term: Listed"
      } ],
      "type" : "Boolean"
    }, {
      "multiplicity" : {
        "lowerBound" : 0,
        "upperBound" : 1
      },
      "name" : "notDomesticIssuance",
      "taggedValues" : [ {
        "tag" : {
          "profile" : "meta::pure::profiles::doc",
          "value" : "doc"
        },
        "value" : "An obligation and deliverable obligation characteristic. Any obligation other than an obligation that was intended to be offered for sale primarily in the domestic market of the relevant Reference Entity. This specifies that the obligation must be an internationally recognized bond. ISDA 2003 Term: Not Domestic Issuance"
      } ],
      "type" : "Boolean"
    }, {
      "multiplicity" : {
        "lowerBound" : 0,
        "upperBound" : 1
      },
      "name" : "fullFaithAndCreditObLiability",
      "taggedValues" : [ {
        "tag" : {
          "profile" : "meta::pure::profiles::doc",
          "value" : "doc"
        },
        "value" : "An obligation and deliverable obligation characteristic. Defined in the ISDA published additional provisions for U.S. Municipal as Reference Entity. ISDA 2003 Term: Full Faith and Credit Obligation Liability"
      } ],
      "type" : "Boolean"
    }, {
      "multiplicity" : {
        "lowerBound" : 0,
        "upperBound" : 1
      },
      "name" : "generalFundObligationLiability",
      "taggedValues" : [ {
        "tag" : {
          "profile" : "meta::pure::profiles::doc",
          "value" : "doc"
        },
        "value" : "An obligation and deliverable obligation characteristic. Defined in the ISDA published additional provisions for U.S. Municipal as Reference Entity. ISDA 2003 Term: General Fund Obligation Liability"
      } ],
      "type" : "Boolean"
    }, {
      "multiplicity" : {
        "lowerBound" : 0,
        "upperBound" : 1
      },
      "name" : "revenueObligationLiability",
      "taggedValues" : [ {
        "tag" : {
          "profile" : "meta::pure::profiles::doc",
          "value" : "doc"
        },
        "value" : "An obligation and deliverable obligation characteristic. Defined in the ISDA published additional provisions for U.S. Municipal as Reference Entity. ISDA 2003 Term: Revenue Obligation Liability"
      } ],
      "type" : "Boolean"
    }, {
      "multiplicity" : {
        "lowerBound" : 0,
        "upperBound" : 1
      },
      "name" : "notContingent",
      "taggedValues" : [ {
        "tag" : {
          "profile" : "meta::pure::profiles::doc",
          "value" : "doc"
        },
        "value" : "NOTE: Only allowed as an obligation charcteristic under ISDA Credit 1999. In essence Not Contingent means the repayment of principal cannot be dependant on a formula/index, i.e. to prevent the risk of being delivered an instrument that may never pay any element of principal, and to ensure that the obligation is interest bearing (on a regular schedule). ISDA 2003 Term: Not Contingent"
      } ],
      "type" : "Boolean"
    }, {
      "multiplicity" : {
        "lowerBound" : 0,
        "upperBound" : 1
      },
      "name" : "excluded",
      "taggedValues" : [ {
        "tag" : {
          "profile" : "meta::pure::profiles::doc",
          "value" : "doc"
        },
        "value" : "A free format string to specify any excluded obligations or deliverable obligations, as the case may be, of the reference entity or excluded types of obligations or deliverable obligations. ISDA 2003 Term: Excluded Obligations/Excluded Deliverable Obligations"
      } ],
      "type" : "String"
    }, {
      "multiplicity" : {
        "lowerBound" : 0,
        "upperBound" : 1
      },
      "name" : "othReferenceEntityObligations",
      "taggedValues" : [ {
        "tag" : {
          "profile" : "meta::pure::profiles::doc",
          "value" : "doc"
        },
        "value" : "This element is used to specify any other obligations of a reference entity in both obligations and deliverable obligations. The obligations can be specified free-form. ISDA 2003 Term: Other Obligations of a Reference Entity"
      } ],
      "type" : "String"
    }, {
      "multiplicity" : {
        "lowerBound" : 0,
        "upperBound" : 1
      },
      "name" : "designatedPriority",
      "taggedValues" : [ {
        "tag" : {
          "profile" : "meta::pure::profiles::doc",
          "value" : "doc"
        },
        "value" : "Applies to Loan CDS, to indicate what lien level is appropriate for a deliverable obligation. Applies to European Loan CDS, to indicate the Ranking of the obligation. Example: a 2nd lien Loan CDS would imply that the deliverable obligations are 1st or 2nd lien loans."
      } ],
      "type" : "FpML::model::Lien"
    }, {
      "multiplicity" : {
        "lowerBound" : 0,
        "upperBound" : 1
      },
      "name" : "cashSettlementOnly",
      "taggedValues" : [ {
        "tag" : {
          "profile" : "meta::pure::profiles::doc",
          "value" : "doc"
        },
        "value" : "An obligation and deliverable obligation characteristic. Defined in the ISDA published Standard Terms Supplement for use with CDS Transactions on Leveraged Loans. ISDA 2003 Term: Cash Settlement Only."
      } ],
      "type" : "Boolean"
    }, {
      "multiplicity" : {
        "lowerBound" : 0,
        "upperBound" : 1
      },
      "name" : "deliveryOfCommitments",
      "taggedValues" : [ {
        "tag" : {
          "profile" : "meta::pure::profiles::doc",
          "value" : "doc"
        },
        "value" : "An obligation and deliverable obligation characteristic. Defined in the ISDA published Standard Terms Supplement for use with CDS Transactions on Leveraged Loans. ISDA 2003 Term: Delivery of Commitments."
      } ],
      "type" : "Boolean"
    }, {
      "multiplicity" : {
        "lowerBound" : 0,
        "upperBound" : 1
      },
      "name" : "continuity",
      "taggedValues" : [ {
        "tag" : {
          "profile" : "meta::pure::profiles::doc",
          "value" : "doc"
        },
        "value" : "An obligation and deliverable obligation characteristic. Defined in the ISDA published Standard Terms Supplement for use with CDS Transactions on Leveraged Loans. ISDA 2003 Term: Continuity."
      } ],
      "type" : "Boolean"
    } ]
  }
}