{
  "classifierPath" : "meta::pure::metamodel::type::Enumeration",
  "content" : {
    "_type" : "Enumeration",
    "name" : "ObservationPeriodDatesEnum",
    "package" : "FpML::model",
    "taggedValues" : [ {
      "tag" : {
        "profile" : "meta::pure::profiles::doc",
        "value" : "doc"
      },
      "value" : "The specification of whether calculated rates are set relative to the beginning or end of a calculation period, or another date. The specification of whether calculated rates are set relative to the first or last day of a calculation period. - For use with pre-trade Credit Limit Check messages."
    } ],
    "values" : [ {
      "value" : "SetInAdvance"
    }, {
      "value" : "Standard"
    }, {
      "value" : "FixingDate"
    } ]
  }
}