{
  "classifierPath" : "meta::pure::metamodel::type::Class",
  "content" : {
    "_type" : "class",
    "name" : "ObservationShiftParameters",
    "package" : "FpML::model",
    "properties" : [ {
      "multiplicity" : {
        "lowerBound" : 1,
        "upperBound" : 1
      },
      "name" : "observationPeriodDates",
      "taggedValues" : [ {
        "tag" : {
          "profile" : "meta::pure::profiles::doc",
          "value" : "doc"
        },
        "value" : "Specifies how the observation period is to be determined relative to the basic calculation period. Options include 'standard' (observation period aligns with the calculation period except for any shifts/lookbacks/lockouts, i.e. it is set in arrears), 'InAdvance' (observation period is based on the prior or deemed prior calculation period plus any shifts), or 'FixingDate' (observation period is based on a fixing date defined the the FpML resetDates structure; this is used only for fallback rate definitions that reference existing resetDates structures.)."
      } ],
      "type" : "FpML::model::ObservationPeriodDatesEnum"
    }, {
      "multiplicity" : {
        "lowerBound" : 0,
        "upperBound" : 1
      },
      "name" : "additionalBusinessDays",
      "taggedValues" : [ {
        "tag" : {
          "profile" : "meta::pure::profiles::doc",
          "value" : "doc"
        },
        "value" : "Any additional business centers that are applicable to the observation shift calculation, in addition to the regular 'applicableBusinessDays'."
      } ],
      "type" : "FpML::model::BusinessCentersOrReference"
    } ],
    "superTypes" : [ "FpML::model::ObservationOffset" ],
    "taggedValues" : [ {
      "tag" : {
        "profile" : "meta::pure::profiles::doc",
        "value" : "doc"
      },
      "value" : "Specifies parameters specific to the observation shift method of compounding/averaging."
    } ]
  }
}