{
  "classifierPath" : "meta::pure::metamodel::type::Class",
  "content" : {
    "_type" : "class",
    "constraints" : [ {
      "functionDefinition" : {
        "_type" : "lambda",
        "body" : [ {
          "_type" : "func",
          "function" : "forAll",
          "parameters" : [ {
            "_type" : "property",
            "parameters" : [ {
              "_type" : "var",
              "name" : "this",
              "sourceInformation" : {
                "endColumn" : 18,
                "endLine" : 8123,
                "sourceId" : "",
                "startColumn" : 14,
                "startLine" : 8123
              }
            } ],
            "property" : "organizationTypeScheme",
            "sourceInformation" : {
              "endColumn" : 41,
              "endLine" : 8123,
              "sourceId" : "",
              "startColumn" : 20,
              "startLine" : 8123
            }
          }, {
            "_type" : "lambda",
            "body" : [ {
              "_type" : "func",
              "function" : "greaterThanEqual",
              "parameters" : [ {
                "_type" : "func",
                "function" : "length",
                "parameters" : [ {
                  "_type" : "var",
                  "name" : "x",
                  "sourceInformation" : {
                    "endColumn" : 65,
                    "endLine" : 8123,
                    "sourceId" : "",
                    "startColumn" : 64,
                    "startLine" : 8123
                  }
                } ],
                "sourceInformation" : {
                  "endColumn" : 73,
                  "endLine" : 8123,
                  "sourceId" : "",
                  "startColumn" : 68,
                  "startLine" : 8123
                }
              }, {
                "_type" : "integer",
                "multiplicity" : {
                  "lowerBound" : 1,
                  "upperBound" : 1
                },
                "sourceInformation" : {
                  "endColumn" : 80,
                  "endLine" : 8123,
                  "sourceId" : "",
                  "startColumn" : 80,
                  "startLine" : 8123
                },
                "values" : [ 1 ]
              } ],
              "sourceInformation" : {
                "endColumn" : 80,
                "endLine" : 8123,
                "sourceId" : "",
                "startColumn" : 77,
                "startLine" : 8123
              }
            } ],
            "parameters" : [ {
              "_type" : "var",
              "class" : "String",
              "multiplicity" : {
                "lowerBound" : 1,
                "upperBound" : 1
              },
              "name" : "x",
              "sourceInformation" : {
                "endColumn" : 59,
                "endLine" : 8123,
                "sourceId" : "",
                "startColumn" : 54,
                "startLine" : 8123
              }
            } ],
            "sourceInformation" : {
              "endColumn" : 80,
              "endLine" : 8123,
              "sourceId" : "",
              "startColumn" : 63,
              "startLine" : 8123
            }
          } ],
          "sourceInformation" : {
            "endColumn" : 49,
            "endLine" : 8123,
            "sourceId" : "",
            "startColumn" : 44,
            "startLine" : 8123
          }
        } ],
        "parameters" : [ ]
      },
      "name" : "c1_length"
    }, {
      "functionDefinition" : {
        "_type" : "lambda",
        "body" : [ {
          "_type" : "func",
          "function" : "greaterThanEqual",
          "parameters" : [ {
            "_type" : "func",
            "function" : "length",
            "parameters" : [ {
              "_type" : "property",
              "parameters" : [ {
                "_type" : "var",
                "name" : "this",
                "sourceInformation" : {
                  "endColumn" : 18,
                  "endLine" : 8124,
                  "sourceId" : "",
                  "startColumn" : 14,
                  "startLine" : 8124
                }
              } ],
              "property" : "value",
              "sourceInformation" : {
                "endColumn" : 24,
                "endLine" : 8124,
                "sourceId" : "",
                "startColumn" : 20,
                "startLine" : 8124
              }
            } ],
            "sourceInformation" : {
              "endColumn" : 32,
              "endLine" : 8124,
              "sourceId" : "",
              "startColumn" : 27,
              "startLine" : 8124
            }
          }, {
            "_type" : "integer",
            "multiplicity" : {
              "lowerBound" : 1,
              "upperBound" : 1
            },
            "sourceInformation" : {
              "endColumn" : 39,
              "endLine" : 8124,
              "sourceId" : "",
              "startColumn" : 39,
              "startLine" : 8124
            },
            "values" : [ 0 ]
          } ],
          "sourceInformation" : {
            "endColumn" : 39,
            "endLine" : 8124,
            "sourceId" : "",
            "startColumn" : 36,
            "startLine" : 8124
          }
        } ],
        "parameters" : [ ]
      },
      "name" : "c2_length"
    } ],
    "name" : "OrganizationType",
    "package" : "FpML::model",
    "properties" : [ {
      "multiplicity" : {
        "lowerBound" : 0,
        "upperBound" : 1
      },
      "name" : "organizationTypeScheme",
      "type" : "String"
    }, {
      "multiplicity" : {
        "lowerBound" : 1,
        "upperBound" : 1
      },
      "name" : "value",
      "type" : "String"
    } ],
    "taggedValues" : [ {
      "tag" : {
        "profile" : "meta::pure::profiles::doc",
        "value" : "doc"
      },
      "value" : "A code that describes what type of role an organization plays, for example a SwapsDealer, a Major Swaps Participant, or Other"
    } ]
  }
}