{
  "classifierPath" : "meta::pure::metamodel::type::Class",
  "content" : {
    "_type" : "class",
    "constraints" : [ {
      "functionDefinition" : {
        "_type" : "lambda",
        "body" : [ {
          "_type" : "func",
          "function" : "forAll",
          "parameters" : [ {
            "_type" : "property",
            "parameters" : [ {
              "_type" : "var",
              "name" : "this",
              "sourceInformation" : {
                "endColumn" : 18,
                "endLine" : 8435,
                "sourceId" : "",
                "startColumn" : 14,
                "startLine" : 8435
              }
            } ],
            "property" : "honorific",
            "sourceInformation" : {
              "endColumn" : 28,
              "endLine" : 8435,
              "sourceId" : "",
              "startColumn" : 20,
              "startLine" : 8435
            }
          }, {
            "_type" : "lambda",
            "body" : [ {
              "_type" : "func",
              "function" : "greaterThanEqual",
              "parameters" : [ {
                "_type" : "func",
                "function" : "length",
                "parameters" : [ {
                  "_type" : "var",
                  "name" : "x",
                  "sourceInformation" : {
                    "endColumn" : 52,
                    "endLine" : 8435,
                    "sourceId" : "",
                    "startColumn" : 51,
                    "startLine" : 8435
                  }
                } ],
                "sourceInformation" : {
                  "endColumn" : 60,
                  "endLine" : 8435,
                  "sourceId" : "",
                  "startColumn" : 55,
                  "startLine" : 8435
                }
              }, {
                "_type" : "integer",
                "multiplicity" : {
                  "lowerBound" : 1,
                  "upperBound" : 1
                },
                "sourceInformation" : {
                  "endColumn" : 67,
                  "endLine" : 8435,
                  "sourceId" : "",
                  "startColumn" : 67,
                  "startLine" : 8435
                },
                "values" : [ 0 ]
              } ],
              "sourceInformation" : {
                "endColumn" : 67,
                "endLine" : 8435,
                "sourceId" : "",
                "startColumn" : 64,
                "startLine" : 8435
              }
            } ],
            "parameters" : [ {
              "_type" : "var",
              "class" : "String",
              "multiplicity" : {
                "lowerBound" : 1,
                "upperBound" : 1
              },
              "name" : "x",
              "sourceInformation" : {
                "endColumn" : 46,
                "endLine" : 8435,
                "sourceId" : "",
                "startColumn" : 41,
                "startLine" : 8435
              }
            } ],
            "sourceInformation" : {
              "endColumn" : 67,
              "endLine" : 8435,
              "sourceId" : "",
              "startColumn" : 50,
              "startLine" : 8435
            }
          } ],
          "sourceInformation" : {
            "endColumn" : 36,
            "endLine" : 8435,
            "sourceId" : "",
            "startColumn" : 31,
            "startLine" : 8435
          }
        } ],
        "parameters" : [ ]
      },
      "name" : "c1_length"
    }, {
      "functionDefinition" : {
        "_type" : "lambda",
        "body" : [ {
          "_type" : "func",
          "function" : "forAll",
          "parameters" : [ {
            "_type" : "property",
            "parameters" : [ {
              "_type" : "var",
              "name" : "this",
              "sourceInformation" : {
                "endColumn" : 18,
                "endLine" : 8436,
                "sourceId" : "",
                "startColumn" : 14,
                "startLine" : 8436
              }
            } ],
            "property" : "firstName",
            "sourceInformation" : {
              "endColumn" : 28,
              "endLine" : 8436,
              "sourceId" : "",
              "startColumn" : 20,
              "startLine" : 8436
            }
          }, {
            "_type" : "lambda",
            "body" : [ {
              "_type" : "func",
              "function" : "greaterThanEqual",
              "parameters" : [ {
                "_type" : "func",
                "function" : "length",
                "parameters" : [ {
                  "_type" : "var",
                  "name" : "x",
                  "sourceInformation" : {
                    "endColumn" : 52,
                    "endLine" : 8436,
                    "sourceId" : "",
                    "startColumn" : 51,
                    "startLine" : 8436
                  }
                } ],
                "sourceInformation" : {
                  "endColumn" : 60,
                  "endLine" : 8436,
                  "sourceId" : "",
                  "startColumn" : 55,
                  "startLine" : 8436
                }
              }, {
                "_type" : "integer",
                "multiplicity" : {
                  "lowerBound" : 1,
                  "upperBound" : 1
                },
                "sourceInformation" : {
                  "endColumn" : 67,
                  "endLine" : 8436,
                  "sourceId" : "",
                  "startColumn" : 67,
                  "startLine" : 8436
                },
                "values" : [ 0 ]
              } ],
              "sourceInformation" : {
                "endColumn" : 67,
                "endLine" : 8436,
                "sourceId" : "",
                "startColumn" : 64,
                "startLine" : 8436
              }
            } ],
            "parameters" : [ {
              "_type" : "var",
              "class" : "String",
              "multiplicity" : {
                "lowerBound" : 1,
                "upperBound" : 1
              },
              "name" : "x",
              "sourceInformation" : {
                "endColumn" : 46,
                "endLine" : 8436,
                "sourceId" : "",
                "startColumn" : 41,
                "startLine" : 8436
              }
            } ],
            "sourceInformation" : {
              "endColumn" : 67,
              "endLine" : 8436,
              "sourceId" : "",
              "startColumn" : 50,
              "startLine" : 8436
            }
          } ],
          "sourceInformation" : {
            "endColumn" : 36,
            "endLine" : 8436,
            "sourceId" : "",
            "startColumn" : 31,
            "startLine" : 8436
          }
        } ],
        "parameters" : [ ]
      },
      "name" : "c2_length"
    }, {
      "functionDefinition" : {
        "_type" : "lambda",
        "body" : [ {
          "_type" : "func",
          "function" : "forAll",
          "parameters" : [ {
            "_type" : "property",
            "parameters" : [ {
              "_type" : "var",
              "name" : "this",
              "sourceInformation" : {
                "endColumn" : 18,
                "endLine" : 8437,
                "sourceId" : "",
                "startColumn" : 14,
                "startLine" : 8437
              }
            } ],
            "property" : "middleName",
            "sourceInformation" : {
              "endColumn" : 29,
              "endLine" : 8437,
              "sourceId" : "",
              "startColumn" : 20,
              "startLine" : 8437
            }
          }, {
            "_type" : "lambda",
            "body" : [ {
              "_type" : "func",
              "function" : "greaterThanEqual",
              "parameters" : [ {
                "_type" : "func",
                "function" : "length",
                "parameters" : [ {
                  "_type" : "var",
                  "name" : "x",
                  "sourceInformation" : {
                    "endColumn" : 53,
                    "endLine" : 8437,
                    "sourceId" : "",
                    "startColumn" : 52,
                    "startLine" : 8437
                  }
                } ],
                "sourceInformation" : {
                  "endColumn" : 61,
                  "endLine" : 8437,
                  "sourceId" : "",
                  "startColumn" : 56,
                  "startLine" : 8437
                }
              }, {
                "_type" : "integer",
                "multiplicity" : {
                  "lowerBound" : 1,
                  "upperBound" : 1
                },
                "sourceInformation" : {
                  "endColumn" : 68,
                  "endLine" : 8437,
                  "sourceId" : "",
                  "startColumn" : 68,
                  "startLine" : 8437
                },
                "values" : [ 0 ]
              } ],
              "sourceInformation" : {
                "endColumn" : 68,
                "endLine" : 8437,
                "sourceId" : "",
                "startColumn" : 65,
                "startLine" : 8437
              }
            } ],
            "parameters" : [ {
              "_type" : "var",
              "class" : "String",
              "multiplicity" : {
                "lowerBound" : 1,
                "upperBound" : 1
              },
              "name" : "x",
              "sourceInformation" : {
                "endColumn" : 47,
                "endLine" : 8437,
                "sourceId" : "",
                "startColumn" : 42,
                "startLine" : 8437
              }
            } ],
            "sourceInformation" : {
              "endColumn" : 68,
              "endLine" : 8437,
              "sourceId" : "",
              "startColumn" : 51,
              "startLine" : 8437
            }
          } ],
          "sourceInformation" : {
            "endColumn" : 37,
            "endLine" : 8437,
            "sourceId" : "",
            "startColumn" : 32,
            "startLine" : 8437
          }
        } ],
        "parameters" : [ ]
      },
      "name" : "c3_length"
    }, {
      "functionDefinition" : {
        "_type" : "lambda",
        "body" : [ {
          "_type" : "func",
          "function" : "forAll",
          "parameters" : [ {
            "_type" : "property",
            "parameters" : [ {
              "_type" : "var",
              "name" : "this",
              "sourceInformation" : {
                "endColumn" : 18,
                "endLine" : 8438,
                "sourceId" : "",
                "startColumn" : 14,
                "startLine" : 8438
              }
            } ],
            "property" : "initial",
            "sourceInformation" : {
              "endColumn" : 26,
              "endLine" : 8438,
              "sourceId" : "",
              "startColumn" : 20,
              "startLine" : 8438
            }
          }, {
            "_type" : "lambda",
            "body" : [ {
              "_type" : "func",
              "function" : "equal",
              "parameters" : [ {
                "_type" : "func",
                "function" : "length",
                "parameters" : [ {
                  "_type" : "var",
                  "name" : "x",
                  "sourceInformation" : {
                    "endColumn" : 50,
                    "endLine" : 8438,
                    "sourceId" : "",
                    "startColumn" : 49,
                    "startLine" : 8438
                  }
                } ],
                "sourceInformation" : {
                  "endColumn" : 58,
                  "endLine" : 8438,
                  "sourceId" : "",
                  "startColumn" : 53,
                  "startLine" : 8438
                }
              }, {
                "_type" : "integer",
                "multiplicity" : {
                  "lowerBound" : 1,
                  "upperBound" : 1
                },
                "sourceInformation" : {
                  "endColumn" : 65,
                  "endLine" : 8438,
                  "sourceId" : "",
                  "startColumn" : 65,
                  "startLine" : 8438
                },
                "values" : [ 1 ]
              } ],
              "sourceInformation" : {
                "endColumn" : 63,
                "endLine" : 8438,
                "sourceId" : "",
                "startColumn" : 62,
                "startLine" : 8438
              }
            } ],
            "parameters" : [ {
              "_type" : "var",
              "class" : "String",
              "multiplicity" : {
                "lowerBound" : 1,
                "upperBound" : 1
              },
              "name" : "x",
              "sourceInformation" : {
                "endColumn" : 44,
                "endLine" : 8438,
                "sourceId" : "",
                "startColumn" : 39,
                "startLine" : 8438
              }
            } ],
            "sourceInformation" : {
              "endColumn" : 65,
              "endLine" : 8438,
              "sourceId" : "",
              "startColumn" : 48,
              "startLine" : 8438
            }
          } ],
          "sourceInformation" : {
            "endColumn" : 34,
            "endLine" : 8438,
            "sourceId" : "",
            "startColumn" : 29,
            "startLine" : 8438
          }
        } ],
        "parameters" : [ ]
      },
      "name" : "c4_length"
    }, {
      "functionDefinition" : {
        "_type" : "lambda",
        "body" : [ {
          "_type" : "func",
          "function" : "forAll",
          "parameters" : [ {
            "_type" : "property",
            "parameters" : [ {
              "_type" : "var",
              "name" : "this",
              "sourceInformation" : {
                "endColumn" : 18,
                "endLine" : 8439,
                "sourceId" : "",
                "startColumn" : 14,
                "startLine" : 8439
              }
            } ],
            "property" : "surname",
            "sourceInformation" : {
              "endColumn" : 26,
              "endLine" : 8439,
              "sourceId" : "",
              "startColumn" : 20,
              "startLine" : 8439
            }
          }, {
            "_type" : "lambda",
            "body" : [ {
              "_type" : "func",
              "function" : "greaterThanEqual",
              "parameters" : [ {
                "_type" : "func",
                "function" : "length",
                "parameters" : [ {
                  "_type" : "var",
                  "name" : "x",
                  "sourceInformation" : {
                    "endColumn" : 50,
                    "endLine" : 8439,
                    "sourceId" : "",
                    "startColumn" : 49,
                    "startLine" : 8439
                  }
                } ],
                "sourceInformation" : {
                  "endColumn" : 58,
                  "endLine" : 8439,
                  "sourceId" : "",
                  "startColumn" : 53,
                  "startLine" : 8439
                }
              }, {
                "_type" : "integer",
                "multiplicity" : {
                  "lowerBound" : 1,
                  "upperBound" : 1
                },
                "sourceInformation" : {
                  "endColumn" : 65,
                  "endLine" : 8439,
                  "sourceId" : "",
                  "startColumn" : 65,
                  "startLine" : 8439
                },
                "values" : [ 0 ]
              } ],
              "sourceInformation" : {
                "endColumn" : 65,
                "endLine" : 8439,
                "sourceId" : "",
                "startColumn" : 62,
                "startLine" : 8439
              }
            } ],
            "parameters" : [ {
              "_type" : "var",
              "class" : "String",
              "multiplicity" : {
                "lowerBound" : 1,
                "upperBound" : 1
              },
              "name" : "x",
              "sourceInformation" : {
                "endColumn" : 44,
                "endLine" : 8439,
                "sourceId" : "",
                "startColumn" : 39,
                "startLine" : 8439
              }
            } ],
            "sourceInformation" : {
              "endColumn" : 65,
              "endLine" : 8439,
              "sourceId" : "",
              "startColumn" : 48,
              "startLine" : 8439
            }
          } ],
          "sourceInformation" : {
            "endColumn" : 34,
            "endLine" : 8439,
            "sourceId" : "",
            "startColumn" : 29,
            "startLine" : 8439
          }
        } ],
        "parameters" : [ ]
      },
      "name" : "c5_length"
    }, {
      "functionDefinition" : {
        "_type" : "lambda",
        "body" : [ {
          "_type" : "func",
          "function" : "forAll",
          "parameters" : [ {
            "_type" : "property",
            "parameters" : [ {
              "_type" : "var",
              "name" : "this",
              "sourceInformation" : {
                "endColumn" : 18,
                "endLine" : 8440,
                "sourceId" : "",
                "startColumn" : 14,
                "startLine" : 8440
              }
            } ],
            "property" : "suffix",
            "sourceInformation" : {
              "endColumn" : 25,
              "endLine" : 8440,
              "sourceId" : "",
              "startColumn" : 20,
              "startLine" : 8440
            }
          }, {
            "_type" : "lambda",
            "body" : [ {
              "_type" : "func",
              "function" : "greaterThanEqual",
              "parameters" : [ {
                "_type" : "func",
                "function" : "length",
                "parameters" : [ {
                  "_type" : "var",
                  "name" : "x",
                  "sourceInformation" : {
                    "endColumn" : 49,
                    "endLine" : 8440,
                    "sourceId" : "",
                    "startColumn" : 48,
                    "startLine" : 8440
                  }
                } ],
                "sourceInformation" : {
                  "endColumn" : 57,
                  "endLine" : 8440,
                  "sourceId" : "",
                  "startColumn" : 52,
                  "startLine" : 8440
                }
              }, {
                "_type" : "integer",
                "multiplicity" : {
                  "lowerBound" : 1,
                  "upperBound" : 1
                },
                "sourceInformation" : {
                  "endColumn" : 64,
                  "endLine" : 8440,
                  "sourceId" : "",
                  "startColumn" : 64,
                  "startLine" : 8440
                },
                "values" : [ 0 ]
              } ],
              "sourceInformation" : {
                "endColumn" : 64,
                "endLine" : 8440,
                "sourceId" : "",
                "startColumn" : 61,
                "startLine" : 8440
              }
            } ],
            "parameters" : [ {
              "_type" : "var",
              "class" : "String",
              "multiplicity" : {
                "lowerBound" : 1,
                "upperBound" : 1
              },
              "name" : "x",
              "sourceInformation" : {
                "endColumn" : 43,
                "endLine" : 8440,
                "sourceId" : "",
                "startColumn" : 38,
                "startLine" : 8440
              }
            } ],
            "sourceInformation" : {
              "endColumn" : 64,
              "endLine" : 8440,
              "sourceId" : "",
              "startColumn" : 47,
              "startLine" : 8440
            }
          } ],
          "sourceInformation" : {
            "endColumn" : 33,
            "endLine" : 8440,
            "sourceId" : "",
            "startColumn" : 28,
            "startLine" : 8440
          }
        } ],
        "parameters" : [ ]
      },
      "name" : "c6_length"
    }, {
      "functionDefinition" : {
        "_type" : "lambda",
        "body" : [ {
          "_type" : "func",
          "function" : "or",
          "parameters" : [ {
            "_type" : "func",
            "function" : "and",
            "parameters" : [ {
              "_type" : "func",
              "function" : "isNotEmpty",
              "parameters" : [ {
                "_type" : "property",
                "parameters" : [ {
                  "_type" : "var",
                  "name" : "this",
                  "sourceInformation" : {
                    "endColumn" : 19,
                    "endLine" : 8441,
                    "sourceId" : "",
                    "startColumn" : 15,
                    "startLine" : 8441
                  }
                } ],
                "property" : "middleName",
                "sourceInformation" : {
                  "endColumn" : 30,
                  "endLine" : 8441,
                  "sourceId" : "",
                  "startColumn" : 21,
                  "startLine" : 8441
                }
              } ],
              "sourceInformation" : {
                "endColumn" : 42,
                "endLine" : 8441,
                "sourceId" : "",
                "startColumn" : 33,
                "startLine" : 8441
              }
            }, {
              "_type" : "func",
              "function" : "isEmpty",
              "parameters" : [ {
                "_type" : "property",
                "parameters" : [ {
                  "_type" : "var",
                  "name" : "this",
                  "sourceInformation" : {
                    "endColumn" : 53,
                    "endLine" : 8441,
                    "sourceId" : "",
                    "startColumn" : 49,
                    "startLine" : 8441
                  }
                } ],
                "property" : "initial",
                "sourceInformation" : {
                  "endColumn" : 61,
                  "endLine" : 8441,
                  "sourceId" : "",
                  "startColumn" : 55,
                  "startLine" : 8441
                }
              } ],
              "sourceInformation" : {
                "endColumn" : 70,
                "endLine" : 8441,
                "sourceId" : "",
                "startColumn" : 64,
                "startLine" : 8441
              }
            } ],
            "sourceInformation" : {
              "endColumn" : 47,
              "endLine" : 8441,
              "sourceId" : "",
              "startColumn" : 46,
              "startLine" : 8441
            }
          }, {
            "_type" : "func",
            "function" : "and",
            "parameters" : [ {
              "_type" : "func",
              "function" : "isEmpty",
              "parameters" : [ {
                "_type" : "property",
                "parameters" : [ {
                  "_type" : "var",
                  "name" : "this",
                  "sourceInformation" : {
                    "endColumn" : 83,
                    "endLine" : 8441,
                    "sourceId" : "",
                    "startColumn" : 79,
                    "startLine" : 8441
                  }
                } ],
                "property" : "middleName",
                "sourceInformation" : {
                  "endColumn" : 94,
                  "endLine" : 8441,
                  "sourceId" : "",
                  "startColumn" : 85,
                  "startLine" : 8441
                }
              } ],
              "sourceInformation" : {
                "endColumn" : 103,
                "endLine" : 8441,
                "sourceId" : "",
                "startColumn" : 97,
                "startLine" : 8441
              }
            }, {
              "_type" : "func",
              "function" : "isNotEmpty",
              "parameters" : [ {
                "_type" : "property",
                "parameters" : [ {
                  "_type" : "var",
                  "name" : "this",
                  "sourceInformation" : {
                    "endColumn" : 114,
                    "endLine" : 8441,
                    "sourceId" : "",
                    "startColumn" : 110,
                    "startLine" : 8441
                  }
                } ],
                "property" : "initial",
                "sourceInformation" : {
                  "endColumn" : 122,
                  "endLine" : 8441,
                  "sourceId" : "",
                  "startColumn" : 116,
                  "startLine" : 8441
                }
              } ],
              "sourceInformation" : {
                "endColumn" : 134,
                "endLine" : 8441,
                "sourceId" : "",
                "startColumn" : 125,
                "startLine" : 8441
              }
            } ],
            "sourceInformation" : {
              "endColumn" : 108,
              "endLine" : 8441,
              "sourceId" : "",
              "startColumn" : 107,
              "startLine" : 8441
            }
          } ],
          "sourceInformation" : {
            "endColumn" : 76,
            "endLine" : 8441,
            "sourceId" : "",
            "startColumn" : 75,
            "startLine" : 8441
          }
        } ],
        "parameters" : [ ]
      },
      "name" : "c7_choice"
    } ],
    "name" : "Person",
    "package" : "FpML::model",
    "properties" : [ {
      "multiplicity" : {
        "lowerBound" : 0,
        "upperBound" : 1
      },
      "name" : "honorific",
      "taggedValues" : [ {
        "tag" : {
          "profile" : "meta::pure::profiles::doc",
          "value" : "doc"
        },
        "value" : "An honorific title, such as Mr., Ms., Dr. etc."
      } ],
      "type" : "String"
    }, {
      "multiplicity" : {
        "lowerBound" : 0,
        "upperBound" : 1
      },
      "name" : "firstName",
      "taggedValues" : [ {
        "tag" : {
          "profile" : "meta::pure::profiles::doc",
          "value" : "doc"
        },
        "value" : "Given name, such as John or Mary."
      } ],
      "type" : "String"
    }, {
      "multiplicity" : {
        "lowerBound" : 0
      },
      "name" : "middleName",
      "type" : "String"
    }, {
      "multiplicity" : {
        "lowerBound" : 0
      },
      "name" : "initial",
      "type" : "String"
    }, {
      "multiplicity" : {
        "lowerBound" : 0,
        "upperBound" : 1
      },
      "name" : "surname",
      "taggedValues" : [ {
        "tag" : {
          "profile" : "meta::pure::profiles::doc",
          "value" : "doc"
        },
        "value" : "Family name, such as Smith or Jones."
      } ],
      "type" : "String"
    }, {
      "multiplicity" : {
        "lowerBound" : 0,
        "upperBound" : 1
      },
      "name" : "suffix",
      "taggedValues" : [ {
        "tag" : {
          "profile" : "meta::pure::profiles::doc",
          "value" : "doc"
        },
        "value" : "Name suffix, such as Jr., III, etc."
      } ],
      "type" : "String"
    }, {
      "multiplicity" : {
        "lowerBound" : 0
      },
      "name" : "personId",
      "taggedValues" : [ {
        "tag" : {
          "profile" : "meta::pure::profiles::doc",
          "value" : "doc"
        },
        "value" : "An identifier assigned by a system for uniquely identifying the individual"
      } ],
      "type" : "FpML::model::PersonId"
    }, {
      "multiplicity" : {
        "lowerBound" : 0,
        "upperBound" : 1
      },
      "name" : "businessUnitReference",
      "taggedValues" : [ {
        "tag" : {
          "profile" : "meta::pure::profiles::doc",
          "value" : "doc"
        },
        "value" : "The unit for which the indvidual works."
      } ],
      "type" : "FpML::model::BusinessUnitReference"
    }, {
      "multiplicity" : {
        "lowerBound" : 0,
        "upperBound" : 1
      },
      "name" : "contactInfo",
      "taggedValues" : [ {
        "tag" : {
          "profile" : "meta::pure::profiles::doc",
          "value" : "doc"
        },
        "value" : "Information on how to contact the individual using various means."
      } ],
      "type" : "FpML::model::ContactInformation"
    }, {
      "multiplicity" : {
        "lowerBound" : 0,
        "upperBound" : 1
      },
      "name" : "dateOfBirth",
      "taggedValues" : [ {
        "tag" : {
          "profile" : "meta::pure::profiles::doc",
          "value" : "doc"
        },
        "value" : "The birth date of the person, e.g. 1970-01-01"
      } ],
      "type" : "StrictDate"
    }, {
      "multiplicity" : {
        "lowerBound" : 0,
        "upperBound" : 1
      },
      "name" : "country",
      "taggedValues" : [ {
        "tag" : {
          "profile" : "meta::pure::profiles::doc",
          "value" : "doc"
        },
        "value" : "The ISO 3166 standard code for the country where the individual works."
      } ],
      "type" : "FpML::model::CountryCode"
    }, {
      "multiplicity" : {
        "lowerBound" : 0,
        "upperBound" : 1
      },
      "name" : "id",
      "type" : "String"
    } ],
    "taggedValues" : [ {
      "tag" : {
        "profile" : "meta::pure::profiles::doc",
        "value" : "doc"
      },
      "value" : "A type that represents information about a person connected with a trade or business process."
    } ]
  }
}