{
  "classifierPath" : "meta::pure::metamodel::type::Enumeration",
  "content" : {
    "_type" : "Enumeration",
    "name" : "PremiumTypeEnum",
    "package" : "FpML::model",
    "taggedValues" : [ {
      "tag" : {
        "profile" : "meta::pure::profiles::doc",
        "value" : "doc"
      },
      "value" : "Premium Type for Forward Start Equity Option"
    } ],
    "values" : [ {
      "value" : "PrePaid"
    }, {
      "value" : "PostPaid"
    }, {
      "value" : "Variable"
    }, {
      "value" : "Fixed"
    } ]
  }
}