{
  "classifierPath" : "meta::pure::metamodel::type::Class",
  "content" : {
    "_type" : "class",
    "constraints" : [ {
      "functionDefinition" : {
        "_type" : "lambda",
        "body" : [ {
          "_type" : "func",
          "function" : "forAll",
          "parameters" : [ {
            "_type" : "property",
            "parameters" : [ {
              "_type" : "var",
              "name" : "this",
              "sourceInformation" : {
                "endColumn" : 18,
                "endLine" : 8563,
                "sourceId" : "",
                "startColumn" : 14,
                "startLine" : 8563
              }
            } ],
            "property" : "name",
            "sourceInformation" : {
              "endColumn" : 23,
              "endLine" : 8563,
              "sourceId" : "",
              "startColumn" : 20,
              "startLine" : 8563
            }
          }, {
            "_type" : "lambda",
            "body" : [ {
              "_type" : "func",
              "function" : "greaterThanEqual",
              "parameters" : [ {
                "_type" : "func",
                "function" : "length",
                "parameters" : [ {
                  "_type" : "var",
                  "name" : "x",
                  "sourceInformation" : {
                    "endColumn" : 47,
                    "endLine" : 8563,
                    "sourceId" : "",
                    "startColumn" : 46,
                    "startLine" : 8563
                  }
                } ],
                "sourceInformation" : {
                  "endColumn" : 55,
                  "endLine" : 8563,
                  "sourceId" : "",
                  "startColumn" : 50,
                  "startLine" : 8563
                }
              }, {
                "_type" : "integer",
                "multiplicity" : {
                  "lowerBound" : 1,
                  "upperBound" : 1
                },
                "sourceInformation" : {
                  "endColumn" : 62,
                  "endLine" : 8563,
                  "sourceId" : "",
                  "startColumn" : 62,
                  "startLine" : 8563
                },
                "values" : [ 0 ]
              } ],
              "sourceInformation" : {
                "endColumn" : 62,
                "endLine" : 8563,
                "sourceId" : "",
                "startColumn" : 59,
                "startLine" : 8563
              }
            } ],
            "parameters" : [ {
              "_type" : "var",
              "class" : "String",
              "multiplicity" : {
                "lowerBound" : 1,
                "upperBound" : 1
              },
              "name" : "x",
              "sourceInformation" : {
                "endColumn" : 41,
                "endLine" : 8563,
                "sourceId" : "",
                "startColumn" : 36,
                "startLine" : 8563
              }
            } ],
            "sourceInformation" : {
              "endColumn" : 62,
              "endLine" : 8563,
              "sourceId" : "",
              "startColumn" : 45,
              "startLine" : 8563
            }
          } ],
          "sourceInformation" : {
            "endColumn" : 31,
            "endLine" : 8563,
            "sourceId" : "",
            "startColumn" : 26,
            "startLine" : 8563
          }
        } ],
        "parameters" : [ ]
      },
      "name" : "c1_length"
    } ],
    "name" : "PricingStructure",
    "package" : "FpML::model",
    "properties" : [ {
      "multiplicity" : {
        "lowerBound" : 0,
        "upperBound" : 1
      },
      "name" : "name",
      "taggedValues" : [ {
        "tag" : {
          "profile" : "meta::pure::profiles::doc",
          "value" : "doc"
        },
        "value" : "The name of the structure, e.g 'USDLIBOR-3M EOD Curve'."
      } ],
      "type" : "String"
    }, {
      "multiplicity" : {
        "lowerBound" : 0,
        "upperBound" : 1
      },
      "name" : "currency",
      "taggedValues" : [ {
        "tag" : {
          "profile" : "meta::pure::profiles::doc",
          "value" : "doc"
        },
        "value" : "The currency that the structure is expressed in (this is relevant mostly for the Interes Rates asset class)."
      } ],
      "type" : "FpML::model::Currency"
    }, {
      "multiplicity" : {
        "lowerBound" : 0,
        "upperBound" : 1
      },
      "name" : "id",
      "type" : "String"
    } ],
    "stereotypes" : [ {
      "profile" : "meta::pure::profiles::typemodifiers",
      "value" : "abstract"
    } ],
    "taggedValues" : [ {
      "tag" : {
        "profile" : "meta::pure::profiles::doc",
        "value" : "doc"
      },
      "value" : "An abstract pricing structure base type. Used as a base for structures such as yield curves and volatility matrices."
    } ]
  }
}