{
  "classifierPath" : "meta::pure::metamodel::type::Class",
  "content" : {
    "_type" : "class",
    "constraints" : [ {
      "functionDefinition" : {
        "_type" : "lambda",
        "body" : [ {
          "_type" : "func",
          "function" : "or",
          "parameters" : [ {
            "_type" : "func",
            "function" : "isNotEmpty",
            "parameters" : [ {
              "_type" : "property",
              "parameters" : [ {
                "_type" : "var",
                "name" : "this",
                "sourceInformation" : {
                  "endColumn" : 18,
                  "endLine" : 8586,
                  "sourceId" : "",
                  "startColumn" : 14,
                  "startLine" : 8586
                }
              } ],
              "property" : "productType",
              "sourceInformation" : {
                "endColumn" : 30,
                "endLine" : 8586,
                "sourceId" : "",
                "startColumn" : 20,
                "startLine" : 8586
              }
            } ],
            "sourceInformation" : {
              "endColumn" : 42,
              "endLine" : 8586,
              "sourceId" : "",
              "startColumn" : 33,
              "startLine" : 8586
            }
          }, {
            "_type" : "func",
            "function" : "and",
            "parameters" : [ {
              "_type" : "func",
              "function" : "isEmpty",
              "parameters" : [ {
                "_type" : "property",
                "parameters" : [ {
                  "_type" : "var",
                  "name" : "this",
                  "sourceInformation" : {
                    "endColumn" : 54,
                    "endLine" : 8586,
                    "sourceId" : "",
                    "startColumn" : 50,
                    "startLine" : 8586
                  }
                } ],
                "property" : "productType",
                "sourceInformation" : {
                  "endColumn" : 66,
                  "endLine" : 8586,
                  "sourceId" : "",
                  "startColumn" : 56,
                  "startLine" : 8586
                }
              } ],
              "sourceInformation" : {
                "endColumn" : 75,
                "endLine" : 8586,
                "sourceId" : "",
                "startColumn" : 69,
                "startLine" : 8586
              }
            }, {
              "_type" : "func",
              "function" : "isNotEmpty",
              "parameters" : [ {
                "_type" : "property",
                "parameters" : [ {
                  "_type" : "var",
                  "name" : "this",
                  "sourceInformation" : {
                    "endColumn" : 86,
                    "endLine" : 8586,
                    "sourceId" : "",
                    "startColumn" : 82,
                    "startLine" : 8586
                  }
                } ],
                "property" : "productId",
                "sourceInformation" : {
                  "endColumn" : 96,
                  "endLine" : 8586,
                  "sourceId" : "",
                  "startColumn" : 88,
                  "startLine" : 8586
                }
              } ],
              "sourceInformation" : {
                "endColumn" : 108,
                "endLine" : 8586,
                "sourceId" : "",
                "startColumn" : 99,
                "startLine" : 8586
              }
            } ],
            "sourceInformation" : {
              "endColumn" : 80,
              "endLine" : 8586,
              "sourceId" : "",
              "startColumn" : 79,
              "startLine" : 8586
            }
          } ],
          "sourceInformation" : {
            "endColumn" : 47,
            "endLine" : 8586,
            "sourceId" : "",
            "startColumn" : 46,
            "startLine" : 8586
          }
        } ],
        "parameters" : [ ]
      },
      "name" : "c1_choice"
    } ],
    "name" : "Product",
    "package" : "FpML::model",
    "properties" : [ {
      "multiplicity" : {
        "lowerBound" : 0,
        "upperBound" : 1
      },
      "name" : "primaryAssetClass",
      "taggedValues" : [ {
        "tag" : {
          "profile" : "meta::pure::profiles::doc",
          "value" : "doc"
        },
        "value" : "A classification of the most important risk class of the trade. FpML defines a simple asset class categorization using a coding scheme."
      } ],
      "type" : "FpML::model::AssetClass"
    }, {
      "multiplicity" : {
        "lowerBound" : 0
      },
      "name" : "secondaryAssetClass",
      "taggedValues" : [ {
        "tag" : {
          "profile" : "meta::pure::profiles::doc",
          "value" : "doc"
        },
        "value" : "A classification of additional risk classes of the trade, if any. FpML defines a simple asset class categorization using a coding scheme."
      } ],
      "type" : "FpML::model::AssetClass"
    }, {
      "multiplicity" : {
        "lowerBound" : 0
      },
      "name" : "productType",
      "taggedValues" : [ {
        "tag" : {
          "profile" : "meta::pure::profiles::doc",
          "value" : "doc"
        },
        "value" : "A classification of the type of product. FpML defines a simple product categorization using a coding scheme."
      } ],
      "type" : "FpML::model::ProductType"
    }, {
      "multiplicity" : {
        "lowerBound" : 0
      },
      "name" : "productId",
      "taggedValues" : [ {
        "tag" : {
          "profile" : "meta::pure::profiles::doc",
          "value" : "doc"
        },
        "value" : "A product reference identifier. The product ID is an identifier that describes the key economic characteristics of the trade type, with the exception of concepts such as size (notional, quantity, number of units) and price (fixed rate, strike, etc.) that are negotiated for each transaction. It can be used to hold identifiers such as the 'UPI' (universal product identifier) required by certain regulatory reporting rules. It can also be used to hold identifiers of benchmark products or product temnplates used by certain trading systems or facilities. FpML does not define the domain values associated with this element. Note that the domain values for this element are not strictly an enumerated list."
      } ],
      "type" : "FpML::model::ProductId"
    }, {
      "multiplicity" : {
        "lowerBound" : 0
      },
      "name" : "assetClass",
      "taggedValues" : [ {
        "tag" : {
          "profile" : "meta::pure::profiles::doc",
          "value" : "doc"
        },
        "value" : "A classification of the risk class of the trade. FpML defines a simple asset class categorization using a coding scheme."
      } ],
      "type" : "FpML::model::AssetClass"
    }, {
      "multiplicity" : {
        "lowerBound" : 0,
        "upperBound" : 2
      },
      "name" : "embeddedOptionType",
      "taggedValues" : [ {
        "tag" : {
          "profile" : "meta::pure::profiles::doc",
          "value" : "doc"
        },
        "value" : "Describes the type of any embedded optionality in the transaction that might not otherwise be apparent. Can be used to represent embedded optionality such as early termination provisions, extendible provisions, or cancelable provisions, etc., where applicable. If omitted, no embedded optionality is applicable."
      } ],
      "type" : "FpML::model::EmbeddedOptionType"
    }, {
      "multiplicity" : {
        "lowerBound" : 0,
        "upperBound" : 1
      },
      "name" : "id",
      "type" : "String"
    } ],
    "stereotypes" : [ {
      "profile" : "meta::pure::profiles::typemodifiers",
      "value" : "abstract"
    } ],
    "taggedValues" : [ {
      "tag" : {
        "profile" : "meta::pure::profiles::doc",
        "value" : "doc"
      },
      "value" : "The base type which all FpML products extend."
    } ]
  }
}