{
  "classifierPath" : "meta::pure::metamodel::type::Enumeration",
  "content" : {
    "_type" : "Enumeration",
    "name" : "PutCallEnum",
    "package" : "FpML::model",
    "taggedValues" : [ {
      "tag" : {
        "profile" : "meta::pure::profiles::doc",
        "value" : "doc"
      },
      "value" : "Specifies whether the option is a call or a put."
    } ],
    "values" : [ {
      "value" : "Put"
    }, {
      "value" : "Call"
    } ]
  }
}