{
  "classifierPath" : "meta::pure::metamodel::type::Class",
  "content" : {
    "_type" : "class",
    "constraints" : [ {
      "functionDefinition" : {
        "_type" : "lambda",
        "body" : [ {
          "_type" : "func",
          "function" : "forAll",
          "parameters" : [ {
            "_type" : "property",
            "parameters" : [ {
              "_type" : "var",
              "name" : "this",
              "sourceInformation" : {
                "endColumn" : 18,
                "endLine" : 8744,
                "sourceId" : "",
                "startColumn" : 14,
                "startLine" : 8744
              }
            } ],
            "property" : "rateSourcePageScheme",
            "sourceInformation" : {
              "endColumn" : 39,
              "endLine" : 8744,
              "sourceId" : "",
              "startColumn" : 20,
              "startLine" : 8744
            }
          }, {
            "_type" : "lambda",
            "body" : [ {
              "_type" : "func",
              "function" : "greaterThanEqual",
              "parameters" : [ {
                "_type" : "func",
                "function" : "length",
                "parameters" : [ {
                  "_type" : "var",
                  "name" : "x",
                  "sourceInformation" : {
                    "endColumn" : 63,
                    "endLine" : 8744,
                    "sourceId" : "",
                    "startColumn" : 62,
                    "startLine" : 8744
                  }
                } ],
                "sourceInformation" : {
                  "endColumn" : 71,
                  "endLine" : 8744,
                  "sourceId" : "",
                  "startColumn" : 66,
                  "startLine" : 8744
                }
              }, {
                "_type" : "integer",
                "multiplicity" : {
                  "lowerBound" : 1,
                  "upperBound" : 1
                },
                "sourceInformation" : {
                  "endColumn" : 78,
                  "endLine" : 8744,
                  "sourceId" : "",
                  "startColumn" : 78,
                  "startLine" : 8744
                },
                "values" : [ 1 ]
              } ],
              "sourceInformation" : {
                "endColumn" : 78,
                "endLine" : 8744,
                "sourceId" : "",
                "startColumn" : 75,
                "startLine" : 8744
              }
            } ],
            "parameters" : [ {
              "_type" : "var",
              "class" : "String",
              "multiplicity" : {
                "lowerBound" : 1,
                "upperBound" : 1
              },
              "name" : "x",
              "sourceInformation" : {
                "endColumn" : 57,
                "endLine" : 8744,
                "sourceId" : "",
                "startColumn" : 52,
                "startLine" : 8744
              }
            } ],
            "sourceInformation" : {
              "endColumn" : 78,
              "endLine" : 8744,
              "sourceId" : "",
              "startColumn" : 61,
              "startLine" : 8744
            }
          } ],
          "sourceInformation" : {
            "endColumn" : 47,
            "endLine" : 8744,
            "sourceId" : "",
            "startColumn" : 42,
            "startLine" : 8744
          }
        } ],
        "parameters" : [ ]
      },
      "name" : "c1_length"
    }, {
      "functionDefinition" : {
        "_type" : "lambda",
        "body" : [ {
          "_type" : "func",
          "function" : "lessThanEqual",
          "parameters" : [ {
            "_type" : "func",
            "function" : "length",
            "parameters" : [ {
              "_type" : "property",
              "parameters" : [ {
                "_type" : "var",
                "name" : "this",
                "sourceInformation" : {
                  "endColumn" : 18,
                  "endLine" : 8745,
                  "sourceId" : "",
                  "startColumn" : 14,
                  "startLine" : 8745
                }
              } ],
              "property" : "value",
              "sourceInformation" : {
                "endColumn" : 24,
                "endLine" : 8745,
                "sourceId" : "",
                "startColumn" : 20,
                "startLine" : 8745
              }
            } ],
            "sourceInformation" : {
              "endColumn" : 32,
              "endLine" : 8745,
              "sourceId" : "",
              "startColumn" : 27,
              "startLine" : 8745
            }
          }, {
            "_type" : "integer",
            "multiplicity" : {
              "lowerBound" : 1,
              "upperBound" : 1
            },
            "sourceInformation" : {
              "endColumn" : 41,
              "endLine" : 8745,
              "sourceId" : "",
              "startColumn" : 39,
              "startLine" : 8745
            },
            "values" : [ 255 ]
          } ],
          "sourceInformation" : {
            "endColumn" : 41,
            "endLine" : 8745,
            "sourceId" : "",
            "startColumn" : 36,
            "startLine" : 8745
          }
        } ],
        "parameters" : [ ]
      },
      "name" : "c2_length"
    } ],
    "name" : "RateSourcePage",
    "package" : "FpML::model",
    "properties" : [ {
      "multiplicity" : {
        "lowerBound" : 0,
        "upperBound" : 1
      },
      "name" : "rateSourcePageScheme",
      "type" : "String"
    }, {
      "multiplicity" : {
        "lowerBound" : 1,
        "upperBound" : 1
      },
      "name" : "value",
      "type" : "String"
    } ]
  }
}