{
  "classifierPath" : "meta::pure::metamodel::type::Class",
  "content" : {
    "_type" : "class",
    "constraints" : [ {
      "functionDefinition" : {
        "_type" : "lambda",
        "body" : [ {
          "_type" : "func",
          "function" : "forAll",
          "parameters" : [ {
            "_type" : "property",
            "parameters" : [ {
              "_type" : "var",
              "name" : "this",
              "sourceInformation" : {
                "endColumn" : 18,
                "endLine" : 8768,
                "sourceId" : "",
                "startColumn" : 14,
                "startLine" : 8768
              }
            } ],
            "property" : "referenceBankName",
            "sourceInformation" : {
              "endColumn" : 36,
              "endLine" : 8768,
              "sourceId" : "",
              "startColumn" : 20,
              "startLine" : 8768
            }
          }, {
            "_type" : "lambda",
            "body" : [ {
              "_type" : "func",
              "function" : "greaterThanEqual",
              "parameters" : [ {
                "_type" : "func",
                "function" : "length",
                "parameters" : [ {
                  "_type" : "var",
                  "name" : "x",
                  "sourceInformation" : {
                    "endColumn" : 60,
                    "endLine" : 8768,
                    "sourceId" : "",
                    "startColumn" : 59,
                    "startLine" : 8768
                  }
                } ],
                "sourceInformation" : {
                  "endColumn" : 68,
                  "endLine" : 8768,
                  "sourceId" : "",
                  "startColumn" : 63,
                  "startLine" : 8768
                }
              }, {
                "_type" : "integer",
                "multiplicity" : {
                  "lowerBound" : 1,
                  "upperBound" : 1
                },
                "sourceInformation" : {
                  "endColumn" : 75,
                  "endLine" : 8768,
                  "sourceId" : "",
                  "startColumn" : 75,
                  "startLine" : 8768
                },
                "values" : [ 1 ]
              } ],
              "sourceInformation" : {
                "endColumn" : 75,
                "endLine" : 8768,
                "sourceId" : "",
                "startColumn" : 72,
                "startLine" : 8768
              }
            } ],
            "parameters" : [ {
              "_type" : "var",
              "class" : "String",
              "multiplicity" : {
                "lowerBound" : 1,
                "upperBound" : 1
              },
              "name" : "x",
              "sourceInformation" : {
                "endColumn" : 54,
                "endLine" : 8768,
                "sourceId" : "",
                "startColumn" : 49,
                "startLine" : 8768
              }
            } ],
            "sourceInformation" : {
              "endColumn" : 75,
              "endLine" : 8768,
              "sourceId" : "",
              "startColumn" : 58,
              "startLine" : 8768
            }
          } ],
          "sourceInformation" : {
            "endColumn" : 44,
            "endLine" : 8768,
            "sourceId" : "",
            "startColumn" : 39,
            "startLine" : 8768
          }
        } ],
        "parameters" : [ ]
      },
      "name" : "c1_length"
    } ],
    "name" : "ReferenceBank",
    "package" : "FpML::model",
    "properties" : [ {
      "multiplicity" : {
        "lowerBound" : 0,
        "upperBound" : 1
      },
      "name" : "referenceBankId",
      "taggedValues" : [ {
        "tag" : {
          "profile" : "meta::pure::profiles::doc",
          "value" : "doc"
        },
        "value" : "An institution (party) identifier, e.g. a bank identifier code (BIC)."
      } ],
      "type" : "FpML::model::ReferenceBankId"
    }, {
      "multiplicity" : {
        "lowerBound" : 0,
        "upperBound" : 1
      },
      "name" : "referenceBankName",
      "taggedValues" : [ {
        "tag" : {
          "profile" : "meta::pure::profiles::doc",
          "value" : "doc"
        },
        "value" : "The name of the institution (party). A free format string. FpML does not define usage rules for the element."
      } ],
      "type" : "String"
    } ],
    "taggedValues" : [ {
      "tag" : {
        "profile" : "meta::pure::profiles::doc",
        "value" : "doc"
      },
      "value" : "A type to describe an institution (party) identified by means of a coding scheme and an optional name."
    } ]
  }
}