{
  "classifierPath" : "meta::pure::metamodel::type::Class",
  "content" : {
    "_type" : "class",
    "constraints" : [ {
      "functionDefinition" : {
        "_type" : "lambda",
        "body" : [ {
          "_type" : "func",
          "function" : "forAll",
          "parameters" : [ {
            "_type" : "property",
            "parameters" : [ {
              "_type" : "var",
              "name" : "this",
              "sourceInformation" : {
                "endColumn" : 18,
                "endLine" : 8911,
                "sourceId" : "",
                "startColumn" : 14,
                "startLine" : 8911
              }
            } ],
            "property" : "reportingRegimeNameScheme",
            "sourceInformation" : {
              "endColumn" : 44,
              "endLine" : 8911,
              "sourceId" : "",
              "startColumn" : 20,
              "startLine" : 8911
            }
          }, {
            "_type" : "lambda",
            "body" : [ {
              "_type" : "func",
              "function" : "greaterThanEqual",
              "parameters" : [ {
                "_type" : "func",
                "function" : "length",
                "parameters" : [ {
                  "_type" : "var",
                  "name" : "x",
                  "sourceInformation" : {
                    "endColumn" : 68,
                    "endLine" : 8911,
                    "sourceId" : "",
                    "startColumn" : 67,
                    "startLine" : 8911
                  }
                } ],
                "sourceInformation" : {
                  "endColumn" : 76,
                  "endLine" : 8911,
                  "sourceId" : "",
                  "startColumn" : 71,
                  "startLine" : 8911
                }
              }, {
                "_type" : "integer",
                "multiplicity" : {
                  "lowerBound" : 1,
                  "upperBound" : 1
                },
                "sourceInformation" : {
                  "endColumn" : 83,
                  "endLine" : 8911,
                  "sourceId" : "",
                  "startColumn" : 83,
                  "startLine" : 8911
                },
                "values" : [ 1 ]
              } ],
              "sourceInformation" : {
                "endColumn" : 83,
                "endLine" : 8911,
                "sourceId" : "",
                "startColumn" : 80,
                "startLine" : 8911
              }
            } ],
            "parameters" : [ {
              "_type" : "var",
              "class" : "String",
              "multiplicity" : {
                "lowerBound" : 1,
                "upperBound" : 1
              },
              "name" : "x",
              "sourceInformation" : {
                "endColumn" : 62,
                "endLine" : 8911,
                "sourceId" : "",
                "startColumn" : 57,
                "startLine" : 8911
              }
            } ],
            "sourceInformation" : {
              "endColumn" : 83,
              "endLine" : 8911,
              "sourceId" : "",
              "startColumn" : 66,
              "startLine" : 8911
            }
          } ],
          "sourceInformation" : {
            "endColumn" : 52,
            "endLine" : 8911,
            "sourceId" : "",
            "startColumn" : 47,
            "startLine" : 8911
          }
        } ],
        "parameters" : [ ]
      },
      "name" : "c1_length"
    }, {
      "functionDefinition" : {
        "_type" : "lambda",
        "body" : [ {
          "_type" : "func",
          "function" : "lessThanEqual",
          "parameters" : [ {
            "_type" : "func",
            "function" : "length",
            "parameters" : [ {
              "_type" : "property",
              "parameters" : [ {
                "_type" : "var",
                "name" : "this",
                "sourceInformation" : {
                  "endColumn" : 18,
                  "endLine" : 8912,
                  "sourceId" : "",
                  "startColumn" : 14,
                  "startLine" : 8912
                }
              } ],
              "property" : "value",
              "sourceInformation" : {
                "endColumn" : 24,
                "endLine" : 8912,
                "sourceId" : "",
                "startColumn" : 20,
                "startLine" : 8912
              }
            } ],
            "sourceInformation" : {
              "endColumn" : 32,
              "endLine" : 8912,
              "sourceId" : "",
              "startColumn" : 27,
              "startLine" : 8912
            }
          }, {
            "_type" : "integer",
            "multiplicity" : {
              "lowerBound" : 1,
              "upperBound" : 1
            },
            "sourceInformation" : {
              "endColumn" : 41,
              "endLine" : 8912,
              "sourceId" : "",
              "startColumn" : 39,
              "startLine" : 8912
            },
            "values" : [ 255 ]
          } ],
          "sourceInformation" : {
            "endColumn" : 41,
            "endLine" : 8912,
            "sourceId" : "",
            "startColumn" : 36,
            "startLine" : 8912
          }
        } ],
        "parameters" : [ ]
      },
      "name" : "c2_length"
    } ],
    "name" : "ReportingRegimeName",
    "package" : "FpML::model",
    "properties" : [ {
      "multiplicity" : {
        "lowerBound" : 0,
        "upperBound" : 1
      },
      "name" : "reportingRegimeNameScheme",
      "type" : "String"
    }, {
      "multiplicity" : {
        "lowerBound" : 1,
        "upperBound" : 1
      },
      "name" : "value",
      "type" : "String"
    } ],
    "taggedValues" : [ {
      "tag" : {
        "profile" : "meta::pure::profiles::doc",
        "value" : "doc"
      },
      "value" : "An identifier of a reporting regime or format used for regulatory reporting. For example DoddFrankAct, MiFID, HongKongOTCDRepository, etc."
    } ]
  }
}