{
  "classifierPath" : "meta::pure::metamodel::type::Enumeration",
  "content" : {
    "_type" : "Enumeration",
    "name" : "ReturnTypeEnum",
    "package" : "FpML::model",
    "taggedValues" : [ {
      "tag" : {
        "profile" : "meta::pure::profiles::doc",
        "value" : "doc"
      },
      "value" : "The type of return associated with the equity swap."
    } ],
    "values" : [ {
      "value" : "Dividend"
    }, {
      "value" : "Price"
    }, {
      "value" : "Total"
    } ]
  }
}