{
  "classifierPath" : "meta::pure::metamodel::type::Class",
  "content" : {
    "_type" : "class",
    "constraints" : [ {
      "functionDefinition" : {
        "_type" : "lambda",
        "body" : [ {
          "_type" : "func",
          "function" : "or",
          "parameters" : [ {
            "_type" : "func",
            "function" : "and",
            "parameters" : [ {
              "_type" : "func",
              "function" : "isNotEmpty",
              "parameters" : [ {
                "_type" : "property",
                "parameters" : [ {
                  "_type" : "var",
                  "name" : "this",
                  "sourceInformation" : {
                    "endColumn" : 19,
                    "endLine" : 9111,
                    "sourceId" : "",
                    "startColumn" : 15,
                    "startLine" : 9111
                  }
                } ],
                "property" : "standardSettlementStyle",
                "sourceInformation" : {
                  "endColumn" : 43,
                  "endLine" : 9111,
                  "sourceId" : "",
                  "startColumn" : 21,
                  "startLine" : 9111
                }
              } ],
              "sourceInformation" : {
                "endColumn" : 55,
                "endLine" : 9111,
                "sourceId" : "",
                "startColumn" : 46,
                "startLine" : 9111
              }
            }, {
              "_type" : "func",
              "function" : "isEmpty",
              "parameters" : [ {
                "_type" : "property",
                "parameters" : [ {
                  "_type" : "var",
                  "name" : "this",
                  "sourceInformation" : {
                    "endColumn" : 66,
                    "endLine" : 9111,
                    "sourceId" : "",
                    "startColumn" : 62,
                    "startLine" : 9111
                  }
                } ],
                "property" : "settlementInstruction",
                "sourceInformation" : {
                  "endColumn" : 88,
                  "endLine" : 9111,
                  "sourceId" : "",
                  "startColumn" : 68,
                  "startLine" : 9111
                }
              } ],
              "sourceInformation" : {
                "endColumn" : 97,
                "endLine" : 9111,
                "sourceId" : "",
                "startColumn" : 91,
                "startLine" : 9111
              }
            } ],
            "sourceInformation" : {
              "endColumn" : 60,
              "endLine" : 9111,
              "sourceId" : "",
              "startColumn" : 59,
              "startLine" : 9111
            }
          }, {
            "_type" : "func",
            "function" : "and",
            "parameters" : [ {
              "_type" : "func",
              "function" : "isEmpty",
              "parameters" : [ {
                "_type" : "property",
                "parameters" : [ {
                  "_type" : "var",
                  "name" : "this",
                  "sourceInformation" : {
                    "endColumn" : 110,
                    "endLine" : 9111,
                    "sourceId" : "",
                    "startColumn" : 106,
                    "startLine" : 9111
                  }
                } ],
                "property" : "standardSettlementStyle",
                "sourceInformation" : {
                  "endColumn" : 134,
                  "endLine" : 9111,
                  "sourceId" : "",
                  "startColumn" : 112,
                  "startLine" : 9111
                }
              } ],
              "sourceInformation" : {
                "endColumn" : 143,
                "endLine" : 9111,
                "sourceId" : "",
                "startColumn" : 137,
                "startLine" : 9111
              }
            }, {
              "_type" : "func",
              "function" : "isNotEmpty",
              "parameters" : [ {
                "_type" : "property",
                "parameters" : [ {
                  "_type" : "var",
                  "name" : "this",
                  "sourceInformation" : {
                    "endColumn" : 154,
                    "endLine" : 9111,
                    "sourceId" : "",
                    "startColumn" : 150,
                    "startLine" : 9111
                  }
                } ],
                "property" : "settlementInstruction",
                "sourceInformation" : {
                  "endColumn" : 176,
                  "endLine" : 9111,
                  "sourceId" : "",
                  "startColumn" : 156,
                  "startLine" : 9111
                }
              } ],
              "sourceInformation" : {
                "endColumn" : 188,
                "endLine" : 9111,
                "sourceId" : "",
                "startColumn" : 179,
                "startLine" : 9111
              }
            } ],
            "sourceInformation" : {
              "endColumn" : 148,
              "endLine" : 9111,
              "sourceId" : "",
              "startColumn" : 147,
              "startLine" : 9111
            }
          } ],
          "sourceInformation" : {
            "endColumn" : 103,
            "endLine" : 9111,
            "sourceId" : "",
            "startColumn" : 102,
            "startLine" : 9111
          }
        } ],
        "parameters" : [ ]
      },
      "name" : "c1_choice"
    } ],
    "name" : "SettlementInformation",
    "package" : "FpML::model",
    "properties" : [ {
      "multiplicity" : {
        "lowerBound" : 0,
        "upperBound" : 1
      },
      "name" : "standardSettlementStyle",
      "taggedValues" : [ {
        "tag" : {
          "profile" : "meta::pure::profiles::doc",
          "value" : "doc"
        },
        "value" : "An optional element used to describe how a trade will settle. This defines a scheme and is used for identifying trades that are identified as settling standard and/or flagged for settlement netting."
      } ],
      "type" : "FpML::model::StandardSettlementStyleEnum"
    }, {
      "multiplicity" : {
        "lowerBound" : 0,
        "upperBound" : 1
      },
      "name" : "settlementInstruction",
      "taggedValues" : [ {
        "tag" : {
          "profile" : "meta::pure::profiles::doc",
          "value" : "doc"
        },
        "value" : "An explicit specification of how a currency payment is to be made, when the payment is not netted and the route is other than the recipient's standard settlement instruction."
      } ],
      "type" : "FpML::model::SettlementInstruction"
    } ],
    "taggedValues" : [ {
      "tag" : {
        "profile" : "meta::pure::profiles::doc",
        "value" : "doc"
      },
      "value" : "A type that represents the choice of methods for settling a potential currency payment resulting from a trade: by means of a standard settlement instruction, by netting it out with other payments, or with an explicit settlement instruction."
    } ]
  }
}