{
  "classifierPath" : "meta::pure::metamodel::type::Class",
  "content" : {
    "_type" : "class",
    "name" : "SharedAmericanExercise",
    "package" : "FpML::model",
    "properties" : [ {
      "multiplicity" : {
        "lowerBound" : 0,
        "upperBound" : 1
      },
      "name" : "commencementDate",
      "taggedValues" : [ {
        "tag" : {
          "profile" : "meta::pure::profiles::doc",
          "value" : "doc"
        },
        "value" : "The first day of the exercise period for an American style option."
      } ],
      "type" : "FpML::model::AdjustableOrRelativeDate"
    }, {
      "multiplicity" : {
        "lowerBound" : 0,
        "upperBound" : 1
      },
      "name" : "expirationDate",
      "taggedValues" : [ {
        "tag" : {
          "profile" : "meta::pure::profiles::doc",
          "value" : "doc"
        },
        "value" : "The last day within an exercise period for an American style option. For a European style option it is the only day within the exercise period."
      } ],
      "type" : "FpML::model::AdjustableOrRelativeDate"
    }, {
      "multiplicity" : {
        "lowerBound" : 0,
        "upperBound" : 1
      },
      "name" : "latestExerciseTime",
      "taggedValues" : [ {
        "tag" : {
          "profile" : "meta::pure::profiles::doc",
          "value" : "doc"
        },
        "value" : "For a Bermuda or American style option, the latest time on an exercise business day (excluding the expiration date) within the exercise period that notice can be given by the buyer to the seller or seller's agent. Notice of exercise given after this time will be deemed to have been given on the next exercise business day."
      } ],
      "type" : "FpML::model::BusinessCenterTime"
    }, {
      "multiplicity" : {
        "lowerBound" : 0,
        "upperBound" : 1
      },
      "name" : "latestExerciseTimeDetermination",
      "taggedValues" : [ {
        "tag" : {
          "profile" : "meta::pure::profiles::doc",
          "value" : "doc"
        },
        "value" : "Latest exercise time determination method."
      } ],
      "type" : "FpML::model::DeterminationMethod"
    } ],
    "superTypes" : [ "FpML::model::Exercise" ],
    "taggedValues" : [ {
      "tag" : {
        "profile" : "meta::pure::profiles::doc",
        "value" : "doc"
      },
      "value" : "TBA"
    } ]
  }
}