{
  "classifierPath" : "meta::pure::metamodel::type::Enumeration",
  "content" : {
    "_type" : "Enumeration",
    "name" : "SpecifiedPriceEnum",
    "package" : "FpML::model",
    "taggedValues" : [ {
      "tag" : {
        "profile" : "meta::pure::profiles::doc",
        "value" : "doc"
      },
      "value" : "The Specified Price in respect of a Transaction and a Commodity Reference Price."
    } ],
    "values" : [ {
      "value" : "Afternoon"
    }, {
      "value" : "Ask"
    }, {
      "value" : "Bid"
    }, {
      "value" : "Closing"
    }, {
      "value" : "High"
    }, {
      "value" : "Index"
    }, {
      "value" : "MeanOfBidAndAsk"
    }, {
      "value" : "LocationalMarginal"
    }, {
      "value" : "Low"
    }, {
      "value" : "MarginalHourly"
    }, {
      "value" : "MarketClearing"
    }, {
      "value" : "MeanOfHighAndLow"
    }, {
      "value" : "Morning"
    }, {
      "value" : "Official"
    }, {
      "value" : "Opening"
    }, {
      "value" : "OSP"
    }, {
      "value" : "Settlement"
    }, {
      "value" : "Spot"
    }, {
      "value" : "Midpoint"
    }, {
      "value" : "NationalSingle"
    }, {
      "value" : "WeightedAverage"
    }, {
      "value" : "UnWeightedAverage"
    } ]
  }
}