{
  "classifierPath" : "meta::pure::metamodel::type::Enumeration",
  "content" : {
    "_type" : "Enumeration",
    "name" : "StandardSettlementStyleEnum",
    "package" : "FpML::model",
    "taggedValues" : [ {
      "tag" : {
        "profile" : "meta::pure::profiles::doc",
        "value" : "doc"
      },
      "value" : "The code specification of whether a trade is settling using standard settlement instructions as well as whether it is a candidate for settlement netting."
    } ],
    "values" : [ {
      "value" : "Standard"
    }, {
      "value" : "Net"
    }, {
      "value" : "StandardAndNet"
    } ]
  }
}