{
  "classifierPath" : "meta::pure::metamodel::type::Class",
  "content" : {
    "_type" : "class",
    "constraints" : [ {
      "functionDefinition" : {
        "_type" : "lambda",
        "body" : [ {
          "_type" : "func",
          "function" : "forAll",
          "parameters" : [ {
            "_type" : "property",
            "parameters" : [ {
              "_type" : "var",
              "name" : "this",
              "sourceInformation" : {
                "endColumn" : 17,
                "endLine" : 9328,
                "sourceId" : "",
                "startColumn" : 13,
                "startLine" : 9328
              }
            } ],
            "property" : "upperStrikeNumberOfOptions",
            "sourceInformation" : {
              "endColumn" : 44,
              "endLine" : 9328,
              "sourceId" : "",
              "startColumn" : 19,
              "startLine" : 9328
            }
          }, {
            "_type" : "lambda",
            "body" : [ {
              "_type" : "func",
              "function" : "greaterThan",
              "parameters" : [ {
                "_type" : "var",
                "name" : "x",
                "sourceInformation" : {
                  "endColumn" : 69,
                  "endLine" : 9328,
                  "sourceId" : "",
                  "startColumn" : 68,
                  "startLine" : 9328
                }
              }, {
                "_type" : "integer",
                "multiplicity" : {
                  "lowerBound" : 1,
                  "upperBound" : 1
                },
                "sourceInformation" : {
                  "endColumn" : 73,
                  "endLine" : 9328,
                  "sourceId" : "",
                  "startColumn" : 73,
                  "startLine" : 9328
                },
                "values" : [ 0 ]
              } ],
              "sourceInformation" : {
                "endColumn" : 73,
                "endLine" : 9328,
                "sourceId" : "",
                "startColumn" : 71,
                "startLine" : 9328
              }
            } ],
            "parameters" : [ {
              "_type" : "var",
              "class" : "Decimal",
              "multiplicity" : {
                "lowerBound" : 1,
                "upperBound" : 1
              },
              "name" : "x",
              "sourceInformation" : {
                "endColumn" : 63,
                "endLine" : 9328,
                "sourceId" : "",
                "startColumn" : 57,
                "startLine" : 9328
              }
            } ],
            "sourceInformation" : {
              "endColumn" : 73,
              "endLine" : 9328,
              "sourceId" : "",
              "startColumn" : 67,
              "startLine" : 9328
            }
          } ],
          "sourceInformation" : {
            "endColumn" : 52,
            "endLine" : 9328,
            "sourceId" : "",
            "startColumn" : 47,
            "startLine" : 9328
          }
        } ],
        "parameters" : [ ]
      },
      "name" : "c1_range"
    } ],
    "name" : "StrikeSpread",
    "package" : "FpML::model",
    "properties" : [ {
      "multiplicity" : {
        "lowerBound" : 0,
        "upperBound" : 1
      },
      "name" : "upperStrike",
      "taggedValues" : [ {
        "tag" : {
          "profile" : "meta::pure::profiles::doc",
          "value" : "doc"
        },
        "value" : "Upper strike in a strike spread."
      } ],
      "type" : "FpML::model::OptionStrike"
    }, {
      "multiplicity" : {
        "lowerBound" : 0,
        "upperBound" : 1
      },
      "name" : "upperStrikeNumberOfOptions",
      "taggedValues" : [ {
        "tag" : {
          "profile" : "meta::pure::profiles::doc",
          "value" : "doc"
        },
        "value" : "Number of options at the upper strike price in a strike spread."
      } ],
      "type" : "Decimal"
    } ],
    "taggedValues" : [ {
      "tag" : {
        "profile" : "meta::pure::profiles::doc",
        "value" : "doc"
      },
      "value" : "A type for defining a strike spread feature."
    } ]
  }
}