{
  "classifierPath" : "meta::pure::metamodel::type::Class",
  "content" : {
    "_type" : "class",
    "name" : "Stub",
    "package" : "FpML::model",
    "properties" : [ {
      "multiplicity" : {
        "lowerBound" : 0,
        "upperBound" : 1
      },
      "name" : "stubStartDate",
      "taggedValues" : [ {
        "tag" : {
          "profile" : "meta::pure::profiles::doc",
          "value" : "doc"
        },
        "value" : "Start date of stub period. This was created to support use of the InterestRateStream within the Equity Derivative sphere, and this element is not expected to be produced in the representation of Interest Rate products."
      } ],
      "type" : "FpML::model::AdjustableOrRelativeDate"
    }, {
      "multiplicity" : {
        "lowerBound" : 0,
        "upperBound" : 1
      },
      "name" : "stubEndDate",
      "taggedValues" : [ {
        "tag" : {
          "profile" : "meta::pure::profiles::doc",
          "value" : "doc"
        },
        "value" : "End date of stub period. This was created to support use of the InterestRateStream within the Equity Derivative sphere, and this element is not expected to be produced in the representation of Interest Rate products."
      } ],
      "type" : "FpML::model::AdjustableOrRelativeDate"
    } ],
    "superTypes" : [ "FpML::model::StubValue" ],
    "taggedValues" : [ {
      "tag" : {
        "profile" : "meta::pure::profiles::doc",
        "value" : "doc"
      },
      "value" : "A type defining how a stub calculation period amount is calculated and the start and end date of the stub. A single floating rate tenor different to that used for the regular part of the calculation periods schedule may be specified, or two floating rate tenors many be specified. If two floating rate tenors are specified then Linear Interpolation (in accordance with the 2000 ISDA Definitions, Section 8.3 Interpolation) is assumed to apply. Alternatively, an actual known stub rate or stub amount may be specified."
    } ]
  }
}