{
  "classifierPath" : "meta::pure::metamodel::type::Enumeration",
  "content" : {
    "_type" : "Enumeration",
    "name" : "SwaptionTypeEnum",
    "package" : "FpML::model",
    "taggedValues" : [ {
      "tag" : {
        "profile" : "meta::pure::profiles::doc",
        "value" : "doc"
      },
      "value" : "Specifies the type of the swaption. A swaption is an option which confers on the buyer the right, but not the obligation, to enter into an interest rate swap (the 'underlying' transaction) on exercise. The underlyer is typically a 'vanilla' fixed-floating, single-currency interest rate swap."
    } ],
    "values" : [ {
      "value" : "Payer"
    }, {
      "value" : "Receiver"
    }, {
      "value" : "Straddle"
    }, {
      "value" : "NonStandard"
    } ]
  }
}