{
  "classifierPath" : "meta::pure::metamodel::type::Enumeration",
  "content" : {
    "_type" : "Enumeration",
    "name" : "TriggerTimeTypeEnum",
    "package" : "FpML::model",
    "taggedValues" : [ {
      "tag" : {
        "profile" : "meta::pure::profiles::doc",
        "value" : "doc"
      },
      "value" : "The time of day which would be considered for valuing the knock event."
    } ],
    "values" : [ {
      "value" : "Closing"
    }, {
      "value" : "Anytime"
    } ]
  }
}