{
  "classifierPath" : "meta::pure::metamodel::type::Class",
  "content" : {
    "_type" : "class",
    "constraints" : [ {
      "functionDefinition" : {
        "_type" : "lambda",
        "body" : [ {
          "_type" : "func",
          "function" : "or",
          "parameters" : [ {
            "_type" : "func",
            "function" : "and",
            "parameters" : [ {
              "_type" : "func",
              "function" : "isNotEmpty",
              "parameters" : [ {
                "_type" : "property",
                "parameters" : [ {
                  "_type" : "var",
                  "name" : "this",
                  "sourceInformation" : {
                    "endColumn" : 19,
                    "endLine" : 9459,
                    "sourceId" : "",
                    "startColumn" : 15,
                    "startLine" : 9459
                  }
                } ],
                "property" : "singleUnderlyer",
                "sourceInformation" : {
                  "endColumn" : 35,
                  "endLine" : 9459,
                  "sourceId" : "",
                  "startColumn" : 21,
                  "startLine" : 9459
                }
              } ],
              "sourceInformation" : {
                "endColumn" : 47,
                "endLine" : 9459,
                "sourceId" : "",
                "startColumn" : 38,
                "startLine" : 9459
              }
            }, {
              "_type" : "func",
              "function" : "isEmpty",
              "parameters" : [ {
                "_type" : "property",
                "parameters" : [ {
                  "_type" : "var",
                  "name" : "this",
                  "sourceInformation" : {
                    "endColumn" : 58,
                    "endLine" : 9459,
                    "sourceId" : "",
                    "startColumn" : 54,
                    "startLine" : 9459
                  }
                } ],
                "property" : "basket",
                "sourceInformation" : {
                  "endColumn" : 65,
                  "endLine" : 9459,
                  "sourceId" : "",
                  "startColumn" : 60,
                  "startLine" : 9459
                }
              } ],
              "sourceInformation" : {
                "endColumn" : 74,
                "endLine" : 9459,
                "sourceId" : "",
                "startColumn" : 68,
                "startLine" : 9459
              }
            } ],
            "sourceInformation" : {
              "endColumn" : 52,
              "endLine" : 9459,
              "sourceId" : "",
              "startColumn" : 51,
              "startLine" : 9459
            }
          }, {
            "_type" : "func",
            "function" : "and",
            "parameters" : [ {
              "_type" : "func",
              "function" : "isEmpty",
              "parameters" : [ {
                "_type" : "property",
                "parameters" : [ {
                  "_type" : "var",
                  "name" : "this",
                  "sourceInformation" : {
                    "endColumn" : 87,
                    "endLine" : 9459,
                    "sourceId" : "",
                    "startColumn" : 83,
                    "startLine" : 9459
                  }
                } ],
                "property" : "singleUnderlyer",
                "sourceInformation" : {
                  "endColumn" : 103,
                  "endLine" : 9459,
                  "sourceId" : "",
                  "startColumn" : 89,
                  "startLine" : 9459
                }
              } ],
              "sourceInformation" : {
                "endColumn" : 112,
                "endLine" : 9459,
                "sourceId" : "",
                "startColumn" : 106,
                "startLine" : 9459
              }
            }, {
              "_type" : "func",
              "function" : "isNotEmpty",
              "parameters" : [ {
                "_type" : "property",
                "parameters" : [ {
                  "_type" : "var",
                  "name" : "this",
                  "sourceInformation" : {
                    "endColumn" : 123,
                    "endLine" : 9459,
                    "sourceId" : "",
                    "startColumn" : 119,
                    "startLine" : 9459
                  }
                } ],
                "property" : "basket",
                "sourceInformation" : {
                  "endColumn" : 130,
                  "endLine" : 9459,
                  "sourceId" : "",
                  "startColumn" : 125,
                  "startLine" : 9459
                }
              } ],
              "sourceInformation" : {
                "endColumn" : 142,
                "endLine" : 9459,
                "sourceId" : "",
                "startColumn" : 133,
                "startLine" : 9459
              }
            } ],
            "sourceInformation" : {
              "endColumn" : 117,
              "endLine" : 9459,
              "sourceId" : "",
              "startColumn" : 116,
              "startLine" : 9459
            }
          } ],
          "sourceInformation" : {
            "endColumn" : 80,
            "endLine" : 9459,
            "sourceId" : "",
            "startColumn" : 79,
            "startLine" : 9459
          }
        } ],
        "parameters" : [ ]
      },
      "name" : "c1_choice"
    } ],
    "name" : "Underlyer",
    "package" : "FpML::model",
    "properties" : [ {
      "multiplicity" : {
        "lowerBound" : 0,
        "upperBound" : 1
      },
      "name" : "singleUnderlyer",
      "taggedValues" : [ {
        "tag" : {
          "profile" : "meta::pure::profiles::doc",
          "value" : "doc"
        },
        "value" : "Describes the swap's underlyer when it has only one asset component."
      } ],
      "type" : "FpML::model::SingleUnderlyer"
    }, {
      "multiplicity" : {
        "lowerBound" : 0,
        "upperBound" : 1
      },
      "name" : "basket",
      "taggedValues" : [ {
        "tag" : {
          "profile" : "meta::pure::profiles::doc",
          "value" : "doc"
        },
        "value" : "Describes the swap's underlyer when it has multiple asset components."
      } ],
      "type" : "FpML::model::Basket"
    } ],
    "taggedValues" : [ {
      "tag" : {
        "profile" : "meta::pure::profiles::doc",
        "value" : "doc"
      },
      "value" : "A type describing the whole set of possible underlyers: single underlyers or multiple underlyers, each of these having either security or index components."
    } ]
  }
}