{
  "classifierPath" : "meta::pure::metamodel::type::Enumeration",
  "content" : {
    "_type" : "Enumeration",
    "name" : "UpdateTypeEnum",
    "package" : "FpML::model",
    "taggedValues" : [ {
      "tag" : {
        "profile" : "meta::pure::profiles::doc",
        "value" : "doc"
      },
      "value" : "The type of update to a record in a report."
    } ],
    "values" : [ {
      "value" : "Created"
    }, {
      "value" : "Modified"
    }, {
      "value" : "Deleted"
    } ]
  }
}