{
  "classifierPath" : "meta::pure::metamodel::type::Class",
  "content" : {
    "_type" : "class",
    "constraints" : [ {
      "functionDefinition" : {
        "_type" : "lambda",
        "body" : [ {
          "_type" : "func",
          "function" : "or",
          "parameters" : [ {
            "_type" : "func",
            "function" : "and",
            "parameters" : [ {
              "_type" : "func",
              "function" : "isNotEmpty",
              "parameters" : [ {
                "_type" : "property",
                "parameters" : [ {
                  "_type" : "var",
                  "name" : "this",
                  "sourceInformation" : {
                    "endColumn" : 19,
                    "endLine" : 9510,
                    "sourceId" : "",
                    "startColumn" : 15,
                    "startLine" : 9510
                  }
                } ],
                "property" : "singleValuationDate",
                "sourceInformation" : {
                  "endColumn" : 39,
                  "endLine" : 9510,
                  "sourceId" : "",
                  "startColumn" : 21,
                  "startLine" : 9510
                }
              } ],
              "sourceInformation" : {
                "endColumn" : 51,
                "endLine" : 9510,
                "sourceId" : "",
                "startColumn" : 42,
                "startLine" : 9510
              }
            }, {
              "_type" : "func",
              "function" : "isEmpty",
              "parameters" : [ {
                "_type" : "property",
                "parameters" : [ {
                  "_type" : "var",
                  "name" : "this",
                  "sourceInformation" : {
                    "endColumn" : 62,
                    "endLine" : 9510,
                    "sourceId" : "",
                    "startColumn" : 58,
                    "startLine" : 9510
                  }
                } ],
                "property" : "multipleValuationDates",
                "sourceInformation" : {
                  "endColumn" : 85,
                  "endLine" : 9510,
                  "sourceId" : "",
                  "startColumn" : 64,
                  "startLine" : 9510
                }
              } ],
              "sourceInformation" : {
                "endColumn" : 94,
                "endLine" : 9510,
                "sourceId" : "",
                "startColumn" : 88,
                "startLine" : 9510
              }
            } ],
            "sourceInformation" : {
              "endColumn" : 56,
              "endLine" : 9510,
              "sourceId" : "",
              "startColumn" : 55,
              "startLine" : 9510
            }
          }, {
            "_type" : "func",
            "function" : "and",
            "parameters" : [ {
              "_type" : "func",
              "function" : "isEmpty",
              "parameters" : [ {
                "_type" : "property",
                "parameters" : [ {
                  "_type" : "var",
                  "name" : "this",
                  "sourceInformation" : {
                    "endColumn" : 107,
                    "endLine" : 9510,
                    "sourceId" : "",
                    "startColumn" : 103,
                    "startLine" : 9510
                  }
                } ],
                "property" : "singleValuationDate",
                "sourceInformation" : {
                  "endColumn" : 127,
                  "endLine" : 9510,
                  "sourceId" : "",
                  "startColumn" : 109,
                  "startLine" : 9510
                }
              } ],
              "sourceInformation" : {
                "endColumn" : 136,
                "endLine" : 9510,
                "sourceId" : "",
                "startColumn" : 130,
                "startLine" : 9510
              }
            }, {
              "_type" : "func",
              "function" : "isNotEmpty",
              "parameters" : [ {
                "_type" : "property",
                "parameters" : [ {
                  "_type" : "var",
                  "name" : "this",
                  "sourceInformation" : {
                    "endColumn" : 147,
                    "endLine" : 9510,
                    "sourceId" : "",
                    "startColumn" : 143,
                    "startLine" : 9510
                  }
                } ],
                "property" : "multipleValuationDates",
                "sourceInformation" : {
                  "endColumn" : 170,
                  "endLine" : 9510,
                  "sourceId" : "",
                  "startColumn" : 149,
                  "startLine" : 9510
                }
              } ],
              "sourceInformation" : {
                "endColumn" : 182,
                "endLine" : 9510,
                "sourceId" : "",
                "startColumn" : 173,
                "startLine" : 9510
              }
            } ],
            "sourceInformation" : {
              "endColumn" : 141,
              "endLine" : 9510,
              "sourceId" : "",
              "startColumn" : 140,
              "startLine" : 9510
            }
          } ],
          "sourceInformation" : {
            "endColumn" : 100,
            "endLine" : 9510,
            "sourceId" : "",
            "startColumn" : 99,
            "startLine" : 9510
          }
        } ],
        "parameters" : [ ]
      },
      "name" : "c1_choice"
    } ],
    "name" : "ValuationDate",
    "package" : "FpML::model",
    "properties" : [ {
      "multiplicity" : {
        "lowerBound" : 0,
        "upperBound" : 1
      },
      "name" : "singleValuationDate",
      "taggedValues" : [ {
        "tag" : {
          "profile" : "meta::pure::profiles::doc",
          "value" : "doc"
        },
        "value" : "Where single valuation date is specified as being applicable for cash settlement, this element specifies the number of business days after satisfaction of all conditions to settlement when such valuation date occurs. ISDA 2003 Term: Single Valuation Date"
      } ],
      "type" : "FpML::model::SingleValuationDate"
    }, {
      "multiplicity" : {
        "lowerBound" : 0,
        "upperBound" : 1
      },
      "name" : "multipleValuationDates",
      "taggedValues" : [ {
        "tag" : {
          "profile" : "meta::pure::profiles::doc",
          "value" : "doc"
        },
        "value" : "Where multiple valuation dates are specified as being applicable for cash settlement, this element specifies (a) the number of applicable valuation dates, and (b) the number of business days after satisfaction of all conditions to settlement when the first such valuation date occurs, and (c) the number of business days thereafter of each successive valuation date. ISDA 2003 Term: Multiple Valuation Dates"
      } ],
      "type" : "FpML::model::MultipleValuationDates"
    } ]
  }
}